@relation DB

@attribute dim0 {1,2}
@attribute dim1 {3,4}
@attribute dim2 {5,6}
@attribute dim3 {7,8,9,10,11,12,13,14,15,16,17,18}
@attribute dim4 {19,20}
@attribute dim5 {21,22}
@attribute dim6 {23,24}
@attribute dim7 {25,26}
@attribute class {"1","0"}

@data
2,4,6,14,19,22,24,26,"1"
1,3,6,12,19,21,24,25,"0"
2,4,5,7,19,21,24,26,"1"
1,3,6,11,20,21,23,25,"0"
1,4,5,14,20,22,24,26,"1"
2,3,6,7,19,21,23,25,"0"
1,3,5,13,20,21,23,25,"1"
2,3,5,7,19,22,23,25,"0"
1,4,6,17,20,21,23,26,"1"
2,4,6,7,19,21,23,26,"1"
1,3,6,7,19,22,23,25,"0"
2,4,6,7,19,22,24,26,"1"
2,4,6,7,19,21,24,26,"0"
1,4,5,11,20,21,24,26,"1"
2,4,6,11,20,21,24,26,"1"
2,3,5,7,19,21,24,26,"1"
1,3,6,17,20,22,24,25,"1"
2,3,6,7,19,21,23,25,"1"
1,3,5,15,20,22,23,26,"0"
1,3,6,13,20,22,24,26,"1"
1,4,6,15,20,22,24,25,"0"
2,3,6,7,19,22,24,26,"0"
2,4,6,7,19,22,24,26,"1"
2,3,6,14,19,21,23,25,"1"
2,4,6,14,20,22,23,26,"1"
2,4,6,11,20,21,23,26,"1"
2,4,6,7,19,22,23,26,"1"
1,3,6,11,20,21,24,25,"0"
2,4,6,11,20,21,23,26,"0"
2,3,6,7,19,22,24,26,"0"
2,3,6,11,19,22,24,26,"0"
1,4,6,15,20,21,24,25,"1"
1,3,5,9,20,21,23,25,"0"
2,3,6,7,19,21,23,25,"0"
2,3,6,13,19,21,24,26,"0"
1,3,5,14,20,21,24,26,"0"
2,4,6,7,19,22,24,26,"0"
2,3,6,15,19,22,24,26,"1"
1,3,6,16,19,22,24,25,"1"
1,3,6,17,20,22,24,26,"1"
1,4,5,11,20,22,23,25,"0"
2,4,6,7,19,22,24,26,"0"
2,3,6,11,19,21,23,26,"0"
2,4,6,11,20,22,24,26,"1"
2,4,5,7,19,21,23,26,"0"
1,4,6,15,19,22,24,25,"1"
1,4,5,7,19,21,24,25,"0"
1,3,6,11,19,21,24,25,"0"
2,3,6,13,19,22,24,25,"1"
2,3,5,7,19,21,23,25,"0"
1,3,6,9,20,21,24,25,"0"
1,3,5,11,20,21,24,25,"0"
2,3,6,11,20,21,24,25,"0"
2,4,6,14,20,22,24,26,"1"
2,4,6,16,20,22,24,26,"0"
1,3,5,9,19,21,23,25,"0"
2,4,6,15,20,22,23,26,"1"
1,3,6,18,20,22,24,25,"0"
1,4,6,7,19,22,24,26,"0"
1,3,5,15,20,22,23,25,"0"
1,3,5,7,19,21,23,25,"0"
2,4,6,7,19,22,23,26,"1"
2,3,5,7,19,21,24,26,"0"
1,4,5,14,20,21,24,25,"0"
2,3,6,7,19,22,23,26,"1"
2,3,6,11,19,21,23,26,"0"
1,3,6,13,19,21,24,26,"1"
1,3,6,7,19,22,24,26,"0"
1,3,6,9,20,21,24,25,"0"
1,4,6,11,20,21,23,25,"0"
1,3,6,11,20,22,24,25,"1"
2,4,5,14,20,21,24,25,"0"
2,4,6,7,19,22,24,26,"1"
1,4,6,11,20,22,23,25,"0"
1,3,6,13,19,21,24,25,"0"
1,3,5,11,19,21,23,25,"0"
2,3,6,7,19,21,24,26,"0"
2,3,6,14,19,22,24,25,"0"
1,4,5,7,19,22,23,25,"1"
1,3,6,11,19,21,23,25,"0"
1,3,5,9,19,21,23,25,"0"
1,3,5,7,19,21,23,25,"0"
2,3,6,11,20,21,24,26,"0"
1,3,5,11,19,21,23,25,"0"
2,4,6,7,19,22,23,26,"1"
1,3,6,12,20,21,24,25,"0"
2,3,6,18,19,22,23,26,"0"
1,3,6,11,20,22,23,25,"0"
2,4,6,13,20,22,23,26,"1"
1,3,6,11,19,21,23,25,"0"
1,3,5,7,19,21,23,25,"0"
1,4,6,11,20,21,24,26,"0"
2,3,6,15,20,22,23,26,"0"
1,4,6,7,19,21,23,26,"1"
1,4,6,11,20,21,24,25,"0"
2,4,6,11,20,22,23,26,"0"
1,3,5,11,19,21,23,25,"0"
1,3,5,11,20,21,23,25,"0"
2,3,5,13,20,21,24,25,"0"
1,3,6,17,20,22,23,25,"1"
1,4,6,7,19,22,24,26,"1"
1,4,5,7,19,21,23,25,"0"
1,4,6,7,19,21,23,25,"0"
1,3,6,11,20,21,23,25,"0"
1,3,5,7,19,22,24,25,"0"
1,4,5,12,20,21,24,25,"0"
1,3,6,7,19,21,23,25,"0"
1,4,5,11,20,21,23,26,"0"
1,3,5,13,20,22,24,25,"0"
1,3,6,11,20,22,23,25,"1"
1,4,6,14,20,22,23,25,"1"
2,4,5,11,20,22,24,26,"1"
1,3,6,14,20,21,23,25,"0"
1,3,5,7,19,22,24,25,"0"
2,4,5,13,20,21,24,26,"1"
1,4,6,7,19,21,24,26,"1"
2,4,6,7,19,22,23,26,"1"
2,3,5,7,19,22,24,25,"0"
1,3,5,11,19,21,24,25,"0"
1,3,6,11,20,21,23,25,"0"
1,4,6,18,20,22,24,25,"1"
2,3,5,15,19,22,23,25,"0"
1,3,6,13,20,22,24,25,"0"
2,4,6,7,19,21,23,26,"0"
1,3,6,7,19,22,23,25,"1"
1,3,5,16,20,22,24,25,"1"
1,3,6,13,20,22,24,25,"0"
1,3,5,15,20,22,23,25,"0"
1,3,6,11,20,22,24,26,"1"
1,3,6,7,19,21,24,26,"1"
1,4,6,10,20,21,24,26,"1"
2,3,5,7,19,22,24,26,"1"
1,4,5,15,20,22,24,25,"1"
2,3,6,13,19,22,24,26,"0"
1,3,6,9,20,21,24,25,"0"
1,4,5,11,20,22,23,25,"0"
1,3,6,11,20,21,24,25,"0"
1,3,5,11,20,21,24,25,"0"
1,4,6,7,19,21,24,25,"0"
2,3,6,12,20,22,23,25,"0"
1,4,6,7,19,21,23,26,"0"
2,3,6,13,19,22,23,26,"0"
1,3,5,11,20,21,23,25,"0"
2,3,6,7,19,21,23,26,"1"
1,4,5,13,20,22,23,25,"0"
1,3,6,11,19,21,24,25,"0"
2,3,6,15,19,22,23,26,"0"
1,3,5,14,20,21,24,26,"0"
2,4,6,7,19,22,23,26,"0"
1,3,6,11,19,21,23,25,"0"
1,4,6,17,20,22,24,25,"0"
1,3,5,7,19,21,24,26,"0"
2,4,6,11,20,22,24,26,"1"
1,4,6,16,20,22,24,25,"0"
2,4,6,7,19,22,23,26,"1"
2,4,6,16,19,22,24,26,"1"
1,3,5,11,20,21,24,25,"0"
1,3,5,11,20,21,24,25,"0"
1,3,6,11,20,21,23,25,"0"
2,4,6,15,20,22,24,26,"1"
1,4,6,15,19,21,23,26,"0"
2,3,6,15,20,22,23,26,"0"
1,3,6,14,20,22,23,25,"0"
1,3,5,11,19,21,24,25,"0"
1,4,6,7,19,21,24,26,"1"
2,3,6,11,20,21,24,26,"1"
1,4,6,11,19,21,23,25,"0"
1,3,6,7,19,21,24,26,"0"
1,3,6,7,19,21,24,25,"0"
1,3,6,9,20,21,24,25,"0"
2,3,6,7,19,21,23,26,"1"
2,4,6,11,20,22,24,25,"1"
1,3,5,11,19,21,24,25,"0"
1,3,5,16,20,22,24,25,"0"
1,3,5,11,20,21,24,26,"0"
2,4,6,16,20,22,24,26,"1"
2,3,6,7,19,21,24,26,"0"
1,4,6,17,20,22,23,25,"1"
2,4,6,7,19,22,23,26,"0"
2,4,6,7,19,22,24,26,"1"
2,3,6,7,19,21,23,26,"0"
1,3,5,11,20,22,24,25,"0"
1,3,6,11,20,21,23,25,"0"
2,3,5,7,19,21,23,25,"0"
1,4,6,7,19,21,23,26,"0"
2,4,6,11,19,22,24,26,"1"
2,4,6,15,20,21,24,26,"1"
1,4,6,15,20,21,24,26,"1"
2,3,6,15,20,21,24,25,"1"
2,4,6,14,20,21,24,25,"1"
1,3,5,7,19,21,23,25,"0"
2,4,6,16,20,22,24,26,"0"
2,4,6,7,19,21,24,26,"1"
2,4,5,7,19,22,24,26,"1"
2,3,5,11,19,21,23,26,"0"
2,4,6,15,20,22,24,25,"1"
1,3,5,7,19,21,23,25,"0"
1,3,5,9,20,21,24,25,"1"
1,3,5,16,20,22,24,25,"1"
1,4,5,11,20,21,23,25,"1"
1,3,6,11,19,21,24,25,"0"
1,4,6,7,19,22,23,25,"0"
1,3,6,11,19,21,24,26,"0"
1,3,6,11,20,21,23,25,"0"
2,3,6,13,20,22,23,26,"0"
2,3,6,11,19,21,24,25,"0"
2,4,6,12,20,22,24,26,"1"
2,4,6,7,19,22,23,26,"1"
1,3,5,11,20,22,23,25,"0"
2,4,6,14,19,22,24,26,"1"
1,3,5,11,19,21,23,25,"0"
1,4,6,18,19,22,24,25,"0"
2,4,6,13,19,22,23,26,"0"
1,4,5,11,20,22,24,25,"1"
2,3,6,13,20,22,23,26,"1"
2,4,6,15,20,22,24,26,"1"
2,3,5,15,20,22,24,25,"1"
2,4,6,13,20,21,24,26,"0"
2,3,6,11,19,21,24,26,"1"
2,3,6,7,19,22,23,26,"1"
1,4,5,12,20,22,24,25,"1"
1,4,6,7,19,21,24,26,"1"
2,3,5,7,19,21,23,26,"0"
2,4,5,14,20,21,24,26,"0"
1,3,6,11,20,21,24,25,"0"
1,3,6,11,20,22,23,25,"0"
1,3,6,7,19,22,23,25,"0"
1,4,5,15,19,22,24,25,"1"
1,4,6,15,20,22,24,25,"0"
1,3,6,13,20,22,23,25,"0"
1,4,6,7,19,22,24,25,"1"
2,4,6,15,20,22,23,26,"1"
1,3,6,11,20,21,24,25,"0"
1,3,6,7,19,22,24,25,"0"
1,3,6,11,20,21,23,25,"0"
1,4,6,7,19,22,24,25,"1"
2,4,6,11,20,22,24,26,"1"
1,4,6,11,19,22,24,25,"1"
2,4,6,11,19,21,24,26,"1"
1,3,6,7,19,21,24,25,"0"
1,3,5,11,19,21,23,25,"0"
1,3,6,13,20,22,24,25,"0"
1,4,5,7,19,21,24,25,"1"
2,3,5,11,20,21,24,26,"1"
1,4,6,14,20,22,23,25,"0"
2,4,6,11,19,21,24,26,"1"
2,3,6,7,19,21,23,26,"0"
1,4,6,14,20,22,24,25,"0"
2,4,6,14,20,22,23,26,"0"
1,3,6,11,19,21,23,25,"0"
2,3,5,7,19,21,24,26,"0"
1,4,6,7,19,21,23,25,"0"
1,3,6,10,20,21,23,25,"0"
1,3,6,13,19,22,23,25,"0"
2,3,5,8,20,21,24,26,"1"
1,3,5,14,19,22,24,25,"1"
1,3,5,15,19,21,24,25,"0"
1,3,6,11,19,21,23,25,"0"
1,4,5,11,20,21,24,25,"0"
2,4,6,11,20,22,24,26,"1"
1,4,6,11,20,21,23,26,"0"
1,4,5,7,19,21,24,25,"1"
1,3,6,13,19,21,24,25,"0"
1,4,6,11,19,21,23,26,"0"
1,4,5,7,19,21,23,26,"1"
2,3,6,11,20,22,24,26,"0"
1,4,5,7,19,22,24,25,"1"
1,4,5,16,19,22,24,25,"0"
1,3,5,7,19,21,23,25,"0"
1,4,5,7,19,21,23,25,"1"
2,3,6,15,19,22,24,26,"1"
1,3,5,13,20,21,23,25,"0"
1,3,6,7,19,21,23,26,"0"
1,3,6,17,20,22,24,25,"0"
2,3,6,7,19,22,23,26,"0"
1,3,6,18,20,22,24,25,"0"
2,3,5,11,19,21,23,25,"1"
1,3,5,11,20,21,24,25,"0"
2,3,6,7,19,21,24,26,"0"
1,3,5,9,20,21,24,25,"0"
1,4,6,7,19,22,24,25,"1"
2,4,6,11,20,22,23,26,"0"
2,4,6,11,20,21,23,26,"0"
2,4,6,7,19,21,23,26,"1"
1,3,6,7,19,21,23,26,"1"
2,4,6,11,20,21,24,26,"0"
2,4,6,16,20,22,24,26,"0"
1,3,6,15,20,22,24,25,"1"
1,3,5,11,20,21,24,25,"0"
2,3,6,16,20,22,23,26,"0"
1,3,6,12,20,22,24,25,"0"
1,3,5,13,20,22,24,25,"1"
1,4,6,15,20,22,24,25,"1"
1,4,5,17,20,22,24,25,"1"
1,4,5,7,19,21,23,26,"0"
2,4,5,13,20,22,24,25,"0"
1,4,6,15,20,21,24,25,"1"
1,4,6,12,20,21,24,25,"0"
2,3,6,11,20,22,24,26,"1"
2,3,6,7,19,21,24,26,"0"
1,4,5,7,19,21,24,25,"1"
1,4,5,14,20,21,24,25,"1"
2,3,6,15,20,22,23,26,"0"
2,3,6,7,19,22,23,25,"1"
1,4,6,7,19,21,23,26,"0"
1,3,6,15,20,22,23,25,"0"
2,4,6,11,20,21,23,26,"1"
1,4,6,10,20,21,23,25,"0"
1,4,6,11,20,21,24,25,"1"
1,4,6,11,20,22,24,25,"1"
2,3,6,13,19,21,23,26,"0"
1,3,6,15,20,22,24,25,"0"
1,4,6,11,20,21,24,25,"1"
1,3,5,9,20,21,24,25,"0"
2,3,6,13,19,22,24,26,"1"
1,3,6,11,20,22,23,25,"0"
1,3,6,9,20,21,23,25,"0"
1,4,6,7,19,21,24,25,"1"
1,3,6,15,20,22,23,25,"0"
2,4,6,7,19,21,23,26,"1"
1,4,5,9,20,21,24,25,"0"
1,3,6,13,19,21,23,25,"1"
1,4,6,11,19,21,23,26,"1"
2,4,6,14,20,21,24,26,"1"
1,3,6,13,19,22,23,25,"0"
1,4,6,11,20,21,23,25,"0"
1,3,5,13,20,22,24,25,"1"
2,4,6,7,19,22,23,26,"0"
1,3,6,15,20,22,23,25,"1"
2,3,6,13,20,21,23,26,"0"
2,3,6,11,19,21,24,26,"0"
1,3,5,11,20,22,23,25,"0"
1,4,5,7,19,22,23,26,"1"
2,3,6,7,19,21,23,26,"0"
1,3,5,11,20,21,23,25,"0"
1,4,6,16,20,22,23,25,"0"
1,3,5,7,19,22,24,26,"0"
2,3,6,7,19,21,24,26,"1"
2,4,6,14,20,22,24,26,"1"
2,4,6,7,19,22,23,26,"1"
1,4,6,9,20,21,24,25,"0"
1,3,6,11,20,21,24,26,"0"
1,3,6,14,19,21,24,25,"0"
2,3,6,7,19,22,23,26,"0"
2,3,6,7,19,22,24,26,"0"
2,4,6,15,20,22,24,26,"0"
1,4,5,11,20,21,24,25,"0"
1,3,5,7,19,21,23,25,"0"
1,3,5,11,20,21,23,25,"0"
2,3,6,13,19,22,24,26,"1"
1,3,6,7,19,22,23,25,"0"
1,4,6,7,19,21,23,25,"0"
1,3,6,11,19,22,23,26,"0"
1,3,5,9,20,21,24,25,"0"
1,3,6,7,19,22,24,25,"0"
2,4,6,7,19,21,23,26,"1"
1,4,5,15,20,22,24,25,"1"
2,4,5,13,19,22,24,26,"1"
2,3,6,15,20,22,24,26,"0"
1,4,6,15,20,22,24,25,"1"
2,4,5,14,20,21,24,25,"1"
2,4,6,7,19,21,23,26,"0"
2,3,6,15,19,22,23,26,"0"
1,4,6,7,19,22,24,26,"1"
1,4,6,11,20,22,24,25,"0"
2,3,5,11,20,22,24,25,"0"
2,4,6,7,19,21,24,25,"1"
1,3,5,11,19,21,23,25,"0"
1,3,6,11,20,21,23,25,"0"
1,4,6,11,20,22,23,26,"1"
1,4,6,17,20,22,24,25,"1"
1,3,5,11,20,21,24,25,"0"
1,3,5,11,20,22,24,25,"0"
1,3,5,15,20,22,23,25,"0"
1,3,5,16,20,22,24,25,"0"
2,4,6,16,20,22,24,26,"1"
1,3,6,11,20,21,23,25,"0"
1,3,5,15,20,22,24,25,"0"
1,4,6,7,19,22,23,26,"1"
1,3,6,15,20,22,24,26,"0"
1,3,6,13,20,21,24,25,"0"
1,3,6,11,19,21,23,25,"0"
1,3,5,9,20,21,24,25,"0"
1,3,5,11,20,21,24,25,"0"
1,4,6,11,20,21,23,25,"0"
1,3,5,9,20,21,23,25,"0"
2,3,6,12,19,21,24,26,"1"
2,3,6,15,19,22,23,26,"1"
2,4,6,11,20,21,24,26,"1"
1,3,6,11,20,21,24,25,"0"
1,3,6,12,20,21,24,26,"0"
2,4,6,7,19,22,24,25,"1"
1,4,5,10,20,21,24,25,"0"
1,3,6,9,20,21,24,26,"0"
1,4,6,7,19,22,24,25,"1"
1,4,5,11,20,21,24,25,"0"
1,3,5,14,20,21,24,26,"0"
1,4,6,15,19,22,23,25,"1"
1,3,6,7,19,21,24,25,"0"
1,4,6,13,19,22,23,25,"1"
1,3,5,7,19,21,23,25,"1"
2,4,5,7,19,21,23,26,"0"
2,4,6,15,20,22,23,26,"1"
2,3,6,11,19,21,23,26,"0"
2,4,5,7,19,22,23,26,"1"
1,4,5,13,20,22,24,25,"0"
1,3,6,7,19,21,24,26,"1"
1,3,5,7,19,21,24,25,"0"
2,4,6,7,19,21,24,26,"1"
1,4,6,17,20,22,24,25,"1"
2,3,6,15,19,22,24,25,"0"
1,3,6,13,20,22,24,25,"0"
1,4,6,11,20,22,24,25,"0"
1,4,6,11,20,21,23,25,"0"
1,4,5,14,20,22,24,25,"1"
1,4,6,14,20,22,23,25,"1"
1,3,6,11,19,21,24,25,"0"
1,4,6,13,19,22,24,26,"1"
1,3,6,7,19,21,24,25,"0"
1,4,5,12,20,21,23,25,"1"
1,3,6,15,20,22,24,25,"0"
1,3,6,11,20,21,24,25,"0"
1,3,5,17,20,22,24,25,"0"
1,3,5,11,19,21,24,25,"0"
2,4,6,13,20,22,24,26,"1"
1,4,6,15,20,22,23,25,"1"
1,3,5,7,19,21,23,25,"0"
1,4,5,13,20,22,23,26,"1"
1,4,6,17,20,22,23,25,"0"
1,3,6,11,20,22,23,26,"1"
1,3,5,7,19,21,23,25,"0"
1,3,6,11,20,21,24,26,"0"
1,3,6,9,20,21,24,25,"0"
1,4,6,7,19,21,23,25,"0"
1,3,6,9,19,21,24,26,"0"
1,4,5,7,19,22,23,25,"1"
2,4,6,14,19,22,23,26,"0"
2,4,6,7,19,21,24,25,"0"
1,3,6,11,19,21,23,25,"0"
2,3,6,7,19,22,24,25,"0"
1,4,6,11,19,22,24,26,"1"
1,3,6,11,20,21,24,25,"0"
1,3,5,11,20,22,23,25,"0"
2,3,6,7,19,21,24,26,"1"
1,3,5,9,19,21,24,25,"1"
1,4,6,18,20,22,24,25,"1"
1,3,6,9,20,21,24,25,"0"
1,3,6,17,20,22,23,25,"0"
1,3,5,15,20,22,24,25,"1"
1,3,6,11,20,21,23,25,"0"
1,3,5,9,20,21,24,25,"0"
1,4,6,7,19,21,24,25,"1"
1,3,6,13,20,22,24,25,"0"
1,3,5,7,19,21,24,26,"0"
1,3,5,11,20,22,24,25,"0"
2,4,5,13,19,22,23,26,"1"
1,4,5,7,19,21,24,26,"0"
2,3,6,11,20,21,24,25,"0"
2,4,6,17,20,22,24,26,"1"
2,4,6,14,20,21,24,26,"0"
2,3,6,11,20,21,24,26,"0"
1,3,5,7,19,21,24,25,"0"
2,3,6,15,20,22,24,26,"0"
2,3,6,13,19,21,23,26,"0"
2,3,6,7,19,21,24,26,"0"
1,4,5,9,20,21,24,25,"0"
1,3,5,9,20,21,23,25,"0"
1,3,5,15,20,22,24,25,"0"
2,3,5,7,19,21,23,26,"1"
2,4,6,15,20,22,24,25,"0"
1,4,6,15,19,22,24,25,"0"
1,4,6,15,19,22,23,25,"0"
1,3,6,11,19,22,23,25,"0"
2,4,6,7,19,21,23,26,"0"
1,3,5,7,19,21,23,25,"0"
1,4,6,11,19,21,23,26,"0"
1,3,6,17,20,22,24,25,"1"
2,3,6,11,20,21,24,25,"0"
2,4,6,15,20,21,23,26,"0"
1,4,6,13,19,21,24,26,"0"
1,4,6,13,20,22,24,26,"1"
1,4,6,15,19,22,23,25,"0"
1,3,5,11,20,21,23,25,"0"
1,3,6,13,20,22,23,25,"0"
1,4,5,7,19,22,24,25,"1"
1,4,6,16,20,22,24,25,"1"
1,4,5,15,20,22,24,25,"0"
1,4,6,13,20,22,24,26,"0"
1,3,6,11,19,21,23,25,"0"
2,4,6,7,19,21,24,26,"0"
1,3,5,11,20,22,24,25,"0"
1,3,6,13,19,22,23,26,"0"
1,3,6,15,19,22,23,26,"0"
1,4,6,11,20,21,24,26,"1"
1,3,5,7,19,21,23,25,"0"
2,4,6,7,19,21,23,26,"0"
2,3,6,7,19,21,23,25,"0"
1,3,6,11,20,21,24,25,"0"
2,4,6,14,20,21,23,26,"1"
2,4,6,13,20,21,24,26,"0"
1,3,6,11,20,21,23,25,"0"
1,3,6,13,19,22,23,25,"0"
2,3,6,15,19,22,24,26,"1"
2,3,5,11,20,22,24,26,"0"
1,3,6,15,19,22,23,26,"0"
2,3,6,7,19,22,23,26,"0"
1,4,6,11,20,22,23,26,"1"
1,4,5,11,20,21,24,25,"0"
1,3,5,11,20,21,24,25,"0"
2,3,6,7,19,21,24,26,"0"
2,3,6,13,19,21,23,26,"1"
1,4,5,11,20,21,23,25,"0"
2,3,6,7,19,21,23,26,"0"
1,3,5,7,19,21,24,25,"0"
1,3,5,11,20,21,23,25,"0"
1,4,6,11,20,21,23,25,"1"
2,4,6,14,20,21,24,26,"1"
2,4,6,7,19,22,23,26,"0"
2,3,5,7,19,22,23,26,"0"
2,4,6,8,20,21,24,26,"0"
1,3,6,13,20,21,23,25,"0"
1,4,6,14,20,22,23,25,"0"
2,3,5,7,19,21,23,25,"0"
2,4,6,7,19,22,24,26,"1"
1,4,5,7,19,21,23,25,"0"
1,3,5,11,19,21,24,25,"0"
1,3,5,11,20,21,23,25,"0"
1,3,6,11,20,21,23,25,"0"
1,3,6,13,20,21,24,25,"0"
1,3,5,7,19,21,24,25,"0"
1,3,5,11,20,21,24,25,"0"
1,3,6,7,19,22,24,25,"0"
1,3,6,18,20,22,24,25,"0"
2,3,5,7,19,21,24,25,"0"
1,3,5,13,20,22,24,25,"0"
1,4,5,7,19,22,23,25,"1"
1,3,6,7,19,21,23,26,"0"
1,3,5,7,19,21,24,26,"0"
1,4,6,15,20,22,24,25,"0"
1,4,6,17,20,22,24,26,"1"
2,3,6,15,20,22,24,26,"1"
1,4,6,11,20,21,24,25,"1"
2,3,6,13,19,22,24,26,"1"
1,3,6,11,20,22,23,25,"0"
1,3,6,12,20,21,24,25,"0"
2,4,6,14,20,22,24,26,"1"
2,4,6,11,20,22,24,26,"1"
1,4,6,11,20,22,23,25,"0"
1,4,6,16,20,22,24,26,"0"
1,4,6,13,19,21,24,26,"0"
1,3,6,11,19,21,23,25,"0"
1,3,6,13,20,21,24,25,"0"
2,3,6,7,19,21,23,26,"0"
1,3,5,11,20,21,24,25,"0"
1,3,5,11,20,22,24,25,"0"
2,4,6,14,20,21,23,26,"0"
1,3,6,15,19,22,23,25,"0"
2,3,6,7,19,21,23,26,"0"
2,3,6,15,19,22,23,26,"0"
2,3,6,7,19,21,23,26,"0"
2,4,6,7,19,22,23,26,"1"
1,4,6,13,20,22,24,25,"1"
1,3,6,14,20,22,24,25,"0"
2,3,5,11,20,21,24,26,"0"
1,3,6,7,19,21,24,25,"0"
1,3,5,10,20,21,24,25,"0"
1,3,6,13,20,22,24,25,"0"
2,3,5,13,20,21,23,26,"0"
1,4,6,12,20,21,24,26,"0"
1,3,6,13,20,22,23,26,"1"
1,3,6,7,19,21,23,26,"0"
1,4,6,7,19,21,23,25,"0"
1,3,5,13,20,21,24,25,"0"
1,3,5,11,20,22,23,25,"0"
1,4,6,13,20,21,24,25,"0"
1,3,5,17,20,22,23,25,"0"
2,3,5,11,20,21,24,26,"0"
1,3,6,7,19,22,24,25,"1"
2,4,6,7,19,21,23,26,"0"
1,4,6,18,19,22,24,26,"1"
1,4,6,17,19,22,24,25,"1"
2,3,5,11,19,21,23,25,"0"
2,3,6,11,19,21,23,26,"0"
2,3,6,7,19,22,23,26,"0"
2,4,6,11,20,21,24,26,"1"
1,3,5,9,19,21,24,25,"0"
2,4,6,7,19,22,23,26,"1"
2,3,6,7,19,21,23,25,"0"
1,4,6,11,20,22,24,26,"1"
1,3,5,7,19,21,24,25,"0"
2,3,6,15,19,22,24,26,"1"
1,3,6,17,20,22,23,25,"0"
1,4,6,7,19,22,24,26,"1"
1,3,5,11,20,21,24,25,"0"
2,4,6,17,20,22,24,26,"0"
1,4,6,10,20,21,24,25,"1"
1,3,6,7,19,22,23,26,"0"
1,3,5,11,20,21,24,25,"0"
1,4,6,7,19,22,23,26,"1"
1,3,5,11,20,21,24,25,"0"
1,3,6,11,19,21,24,25,"0"
2,3,5,7,19,21,23,25,"0"
1,4,6,15,19,21,23,25,"0"
2,4,6,12,20,22,24,26,"1"
1,4,5,7,19,21,23,26,"1"
1,4,5,13,19,22,24,25,"0"
1,4,6,16,20,22,24,25,"1"
1,3,5,11,20,21,24,25,"0"
1,4,6,15,20,22,23,25,"0"
1,3,5,9,20,21,23,25,"0"
1,3,5,11,20,21,23,25,"0"
1,4,5,11,20,22,24,26,"1"
2,4,6,16,20,22,24,26,"1"
2,3,6,11,19,21,24,25,"0"
2,4,6,11,20,22,24,26,"1"
1,3,6,7,19,21,23,25,"0"
2,3,6,7,19,21,23,25,"0"
1,3,5,9,20,21,23,25,"0"
2,3,6,11,19,21,24,26,"1"
1,3,5,7,19,21,23,25,"1"
1,3,6,16,20,22,23,25,"0"
1,3,6,11,19,21,24,25,"0"
2,4,6,7,19,22,24,26,"0"
1,3,6,11,20,22,24,25,"0"
1,3,5,7,19,21,23,25,"0"
1,3,6,17,20,22,24,25,"0"
1,4,6,7,19,21,23,25,"0"
1,4,6,7,19,21,24,25,"0"
2,4,6,7,19,22,23,26,"0"
1,3,5,11,19,21,23,25,"0"
2,3,5,7,19,21,24,26,"1"
1,3,6,15,20,22,23,25,"0"
1,3,5,7,19,21,24,25,"0"
1,4,6,11,20,21,23,25,"0"
2,3,5,7,19,21,23,25,"0"
2,3,6,7,19,21,24,26,"1"
2,3,6,7,19,21,23,26,"0"
1,3,6,11,20,21,24,25,"0"
2,3,6,13,20,22,24,26,"1"
1,3,6,9,20,21,23,25,"0"
1,3,6,11,20,21,24,25,"0"
1,4,6,7,19,22,23,25,"0"
2,4,6,7,19,21,23,26,"1"
1,3,5,7,19,21,24,25,"0"
1,3,6,13,20,21,24,25,"0"
1,4,6,14,20,22,23,25,"0"
1,4,6,11,20,21,24,26,"1"
1,4,5,15,20,22,24,25,"1"
2,4,6,14,20,21,23,26,"1"
1,3,5,11,19,21,23,25,"0"
1,3,5,11,20,21,23,25,"0"
1,3,5,11,20,22,24,25,"0"
2,4,6,15,20,22,23,25,"0"
1,3,5,7,19,21,24,25,"0"
1,3,6,11,20,22,23,25,"0"
1,4,5,11,20,22,23,25,"1"
1,3,5,14,20,21,23,25,"0"
1,3,6,17,20,22,24,26,"0"
2,4,6,7,19,22,23,26,"0"
1,3,6,13,20,22,24,25,"1"
2,4,6,7,19,21,23,26,"0"
1,4,6,16,19,22,24,25,"1"
2,4,6,17,20,22,23,26,"1"
2,4,6,17,20,22,24,26,"1"
2,3,5,15,19,22,23,26,"1"
1,3,6,17,20,22,23,25,"0"
1,4,6,11,19,21,23,26,"1"
2,3,6,11,19,21,23,26,"1"
2,3,5,14,20,22,24,26,"0"
2,4,6,13,20,21,23,26,"0"
2,4,6,11,20,22,24,26,"0"
1,3,5,9,19,21,24,25,"0"
2,3,6,11,20,22,23,26,"0"
1,4,6,14,20,22,24,25,"0"
2,3,6,7,19,22,24,26,"0"
2,4,6,7,19,21,23,25,"1"
2,4,6,7,19,21,23,26,"1"
1,3,5,7,19,22,23,25,"0"
1,3,5,7,19,22,23,25,"1"
1,3,5,11,20,21,24,25,"0"
1,3,5,11,20,21,24,25,"0"
1,4,6,15,19,22,24,25,"1"
1,3,5,15,20,22,24,25,"0"
1,4,6,7,19,21,24,25,"1"
2,4,6,7,19,21,24,26,"0"
1,4,6,11,20,22,24,25,"0"
1,4,5,7,19,21,23,25,"0"
1,3,5,11,19,21,23,25,"0"
1,4,6,11,20,21,24,25,"0"
1,4,6,17,20,22,24,26,"1"
2,3,6,7,19,21,24,26,"0"
2,4,6,7,19,22,23,26,"1"
1,3,6,13,20,22,24,25,"0"
2,4,6,17,20,22,24,26,"1"
1,3,5,7,19,21,23,25,"0"
2,4,6,11,20,21,23,26,"1"
1,4,6,11,20,21,23,25,"1"
1,3,5,7,19,21,23,25,"0"
1,4,6,9,20,22,24,25,"0"
1,3,6,7,19,22,24,25,"0"
1,3,6,11,20,22,24,25,"0"
2,4,6,13,19,21,24,26,"1"
1,4,6,12,19,22,24,26,"1"
1,4,5,7,19,22,23,26,"0"
1,3,6,11,20,21,23,25,"0"
2,3,6,15,19,22,23,25,"0"
2,3,5,7,19,21,23,25,"1"
1,4,5,11,20,22,23,25,"0"
2,4,6,7,19,22,23,26,"1"
1,3,5,13,20,22,24,25,"1"
1,4,5,9,20,21,23,25,"0"
2,4,6,11,20,21,24,26,"0"
2,4,5,15,19,22,24,26,"1"
1,4,5,11,20,21,24,25,"0"
1,3,6,7,19,21,23,26,"0"
2,4,5,14,20,22,24,26,"1"
1,4,6,15,20,22,24,25,"1"
2,3,6,11,19,21,24,26,"0"
1,3,5,17,20,22,24,25,"0"
2,3,6,11,19,22,24,26,"1"
1,3,6,11,19,21,23,26,"0"
1,3,6,15,20,22,23,25,"0"
1,4,6,12,20,21,24,26,"1"
2,3,6,13,20,22,23,26,"0"
1,3,6,7,19,22,23,26,"0"
1,3,6,15,19,22,23,26,"0"
1,3,6,12,20,22,24,25,"0"
1,4,6,11,19,21,24,25,"0"
1,4,6,7,19,21,23,25,"0"
1,3,5,7,19,21,23,25,"0"
1,4,6,11,20,21,23,26,"1"
2,3,6,7,19,21,23,25,"1"
1,4,6,15,20,22,24,25,"1"
1,3,5,11,20,21,24,25,"0"
1,3,6,7,19,21,24,26,"0"
1,3,5,13,19,22,23,25,"0"
1,4,6,11,20,21,24,25,"0"
2,3,6,11,19,21,24,26,"0"
1,3,5,11,20,22,24,25,"0"
1,3,6,7,19,22,23,26,"1"
2,3,6,15,20,22,24,26,"1"
1,3,5,11,20,21,24,25,"0"
1,3,5,11,20,21,23,25,"0"
2,4,6,7,19,22,24,26,"1"
2,4,6,15,20,22,24,26,"0"
2,3,6,14,20,21,24,26,"0"
1,4,6,15,19,22,24,25,"1"
1,3,6,15,20,22,24,26,"0"
1,4,6,11,20,22,24,26,"1"
2,4,5,7,19,21,23,26,"1"
1,4,6,7,19,21,24,25,"1"
1,3,6,15,20,22,23,25,"0"
1,3,5,11,19,21,23,25,"0"
1,4,6,16,20,22,23,25,"1"
2,4,6,13,19,21,24,26,"1"
1,4,6,15,20,22,24,26,"1"
2,4,6,15,19,21,24,26,"0"
1,4,6,7,19,22,23,26,"1"
1,3,6,7,19,22,23,25,"0"
2,4,6,7,19,22,23,26,"1"
1,3,5,11,20,21,24,25,"0"
2,4,6,13,19,22,24,26,"1"
2,3,5,7,19,21,23,26,"0"
2,3,6,17,20,22,23,26,"0"
1,3,6,11,19,22,24,25,"0"
2,3,6,11,20,21,23,25,"0"
1,4,5,7,19,21,24,26,"1"
1,3,6,13,19,21,23,25,"0"