
nr dims: 20
nr outliers: 4
i: 1true ce: 1.96387167848e+87, mce: 1.96367539907e+87, uds: 1.96367539907e+87true score: 0.482483968, mce: 0.5759202272, uds: 0.0

nr dims: 20
nr outliers: 4
i: 2true ce: 1696.94976527, mce: 1420.24939151, uds: 1611.50279448true score: 0.0026170512, mce: 0.3757865153, uds: 0.0

nr dims: 20
nr outliers: 4
i: 3true ce: 1.76528325006e+31, mce: 1.76510676667e+31, uds: 1.76510676667e+31true score: 0.0024562882, mce: 0, uds: 0.0
