
nr dims: 20
nr outliers: 4
i: 1true ce: 4.051689724e+38, mce: 4.05128463408e+38, uds: 4.05128463408e+38true score: 0.3619162913, mce: 0.5887363788, uds: 0.0013210476

nr dims: 20
nr outliers: 4
i: 2true ce: 1.59785146319e+51, mce: 1.59769179494e+51, uds: 1.59769179494e+51true score: 0.4575836156, mce: 0.6397439093, uds: 0.0

nr dims: 20
nr outliers: 4
i: 3true ce: 8.57456851273e+44, mce: 4.28685559285e+44, uds: 4.28685559285e+44true score: 0.1212004586, mce: 0.3510471436, uds: 0.0
