dimensions: [3, 10, 20, 30, 40, 50]

polynomial

acc mce: [0.75, 0.9005102040816325, 0.942749395915817, 0.9695086787526366, 0.9788012260766352, 0.9825821900949862]
pr. mce: [0.5, 0.6571428571428571, 0.6, 0.6909090909090908, 0.710344827586207, 0.7000000000000001]
r. mce: [0.5, 0.6571428571428571, 0.6, 0.6909090909090908, 0.710344827586207, 0.7000000000000001]

acc uds: [0.6666666666666666, 0.13043478260869565, 0.0625, 0.036281179138321996, 0.02795425667090216, 0.016194331983805668]
pr. uds: [0.6666666666666666, 0.13333333333333333, 0.06315789473684211, 0.0367816091954023, 0.028205128205128206, 0.022857142857142857]
r. uds: [1.0, 0.8571428571428571, 0.8571428571428571, 0.7272727272727273, 0.7586206896551724, 0.7777777777777778]

acc uds jd: [0.8666666666666668, 0.7391304347826086, 0.8489583333333334, 0.8875283446712018, 0.914866581956798, 0.9336577453365773]
pr. uds jd: [0.9, 0.22222222222222224, 0.10526315789473684, 0.059284715750232996, 0.04358974358974359, 0.03265306122448979]
r. uds jd: [0.9, 0.2857142857142857, 0.14285714285714285, 0.08181818181818183, 0.06206896551724138, 0.04444444444444444]

acc uds x jd: [0.9333333333333332, 0.8434782608695652, 0.91875, 0.9319727891156463, 0.9489199491740787, 0.9596107055961071]
pr. uds x jd: [0.9333333333333332, 0.48888888888888893, 0.46081508118121384, 0.3728616813294233, 0.37048745292647733, 0.37178348555707047]
r. uds x jd: [1.0, 0.6285714285714284, 0.7, 0.5363636363636364, 0.5517241379310345, 0.5555555555555556]
