\addvspace {10\p@ }
\addvspace {10\p@ }
\addvspace {10\p@ }
\contentsline {table}{\numberline {3.1}{\ignorespaces Summary of the commonly used notations\relax }}{12}{table.caption.15}
\addvspace {10\p@ }
\addvspace {10\p@ }
\addvspace {10\p@ }
\contentsline {table}{\numberline {6.1}{\ignorespaces [Lower value is better] Probability that a randomly reconstructed network is at least as accurate as the network reconstructed by \textsc {Grip}, \textsc {UDS}, \textsc {UDS\texttt {+}} and \textsc {UDS\texttt {++}} respectively\relax }}{38}{table.caption.72}
\contentsline {table}{\numberline {6.2}{\ignorespaces Cumulative entropy estimated by \textsc {Grip}, \textsc {UDS} and \textsc {UDS\texttt {++}} on real data\relax }}{45}{table.caption.89}
\contentsline {table}{\numberline {6.3}{\ignorespaces Amount of dependencies detected by \textsc {Grip}, \textsc {UDS}, \textsc {UDS\texttt {++}} and \textsc {MAC} in real data\relax }}{46}{table.caption.90}
\contentsline {table}{\numberline {6.4}{\ignorespaces Run-time (in seconds) for \textsc {Grip}, \textsc {UDS}, \textsc {UDS\texttt {++}} and \textsc {MAC} on real data\relax }}{46}{table.caption.91}
\addvspace {10\p@ }
\addvspace {10\p@ }
\addvspace {10\p@ }
\contentsline {table}{\numberline {A.1}{\ignorespaces Estimation error of the cumulative entropy w.r.t. increasing data dimensionality for linear, loglinear, polynomial and logpolynomial dependencies. All values given in \%. \texttt {+} and \texttt {-} indicate overestimation and underestimation respectively\relax }}{60}{table.caption.102}
\contentsline {table}{\numberline {A.2}{\ignorespaces Estimation error of the dependency score for different algorithms w.r.t. increasing data dimensionality for linear, loglinear, polynomial and logpolynomial dependencies. All values given in \%. \texttt {+} and \texttt {-} indicate overestimation and underestimation respectively\relax }}{61}{table.caption.103}
\contentsline {table}{\numberline {A.3}{\ignorespaces Estimation error of the cumulative entropy w.r.t. increasing subspace dimensionality for linear, loglinear, polynomial and logpolynomial dependencies. All values given in \%. \texttt {+} and \texttt {-} indicate overestimation and underestimation respectively\relax }}{62}{table.caption.104}
\contentsline {table}{\numberline {A.4}{\ignorespaces Estimation error of the dependency score for different algorithms w.r.t. increasing subspace dimensionality for linear, loglinear, polynomial and logpolynomial dependencies. All values given in \%. \texttt {+} and \texttt {-} indicate overestimation and underestimation respectively\relax }}{65}{table.caption.105}
