This is BibTeX, Version 0.99d (TeX Live 2017)
Capacity: max_strings=100000, hash_size=100000, hash_prime=85009
The top-level auxiliary file: thesis.aux
A level-1 auxiliary file: backmatter/appendix.aux
The style file: unsrtnat.bst
Database file #1: bib/references.bib
Warning--empty journal in fayyad1993multi
Warning--empty journal in fayyad1992induction
You've used 38 entries,
            2481 wiz_defined-function locations,
            783 strings with 11289 characters,
and the built_in function-call counts, 16808 in all, are:
= -- 1513
> -- 752
< -- 36
+ -- 295
- -- 218
* -- 1210
:= -- 2505
add.period$ -- 125
call.type$ -- 38
change.case$ -- 75
chr.to.int$ -- 37
cite$ -- 40
duplicate$ -- 896
empty$ -- 1569
format.name$ -- 278
if$ -- 3723
int.to.chr$ -- 2
int.to.str$ -- 39
missing$ -- 38
newline$ -- 198
num.names$ -- 114
pop$ -- 366
preamble$ -- 1
purify$ -- 38
quote$ -- 0
skip$ -- 582
stack$ -- 0
substring$ -- 957
swap$ -- 225
text.length$ -- 17
text.prefix$ -- 0
top$ -- 0
type$ -- 260
warning$ -- 2
while$ -- 154
width$ -- 0
write$ -- 505
(There were 2 warnings)
