\relax 
\providecommand\hyper@newdestlabel[2]{}
\providecommand\HyperFirstAtBeginDocument{\AtBeginDocument}
\HyperFirstAtBeginDocument{\ifx\hyper@anchor\@undefined
\global\let\oldcontentsline\contentsline
\gdef\contentsline#1#2#3#4{\oldcontentsline{#1}{#2}{#3}}
\global\let\oldnewlabel\newlabel
\gdef\newlabel#1#2{\newlabelxx{#1}#2}
\gdef\newlabelxx#1#2#3#4#5#6{\oldnewlabel{#1}{{#2}{#3}}}
\AtEndDocument{\ifx\hyper@anchor\@undefined
\let\contentsline\oldcontentsline
\let\newlabel\oldnewlabel
\fi}
\fi}
\global\let\hyper@last\relax 
\gdef\HyperFirstAtBeginDocument#1{#1}
\providecommand\HyField@AuxAddToFields[1]{}
\providecommand\HyField@AuxAddToCoFields[2]{}
\providecommand \oddpage@label [2]{}
\providecommand*\caption@xref[2]{\@setref\relax\@undefined{#1}}
\newlabel{tab:tab1}{{\caption@xref {tab:tab1}{ on input line 80}}{i}{}{table.caption.1}{}}
\newlabel{tab:tab1@cref}{{}{[i][1][]i}}
\@writefile{toc}{\contentsline {chapter}{Abstract}{vi}{dummy.2}}
\@writefile{toc}{\vspace  {1em}}
\@writefile{toc}{\contentsline {chapter}{Acknowledgements}{viii}{dummy.3}}
\@writefile{toc}{\vspace  {1em}}
\citation{chickering1994learning}
\@writefile{toc}{\vspace  {2em}}
\@writefile{toc}{\contentsline {chapter}{\numberline {1}Introduction}{1}{chapter.5}}
\@writefile{lof}{\addvspace {10\p@ }}
\@writefile{lot}{\addvspace {10\p@ }}
\@writefile{loa}{\addvspace {10\p@ }}
\citation{rao2004cumulative,di2009cumulative}
\citation{nguyen2016universal}
\citation{tsanas2012accurate}
\@writefile{lof}{\contentsline {figure}{\numberline {1.1}{\ignorespaces Dependency network reconstructed by \textsc  {Grip} from the energy efficiency dataset\relax }}{3}{figure.caption.6}}
\newlabel{intro:energy}{{1.1}{3}{Dependency network reconstructed by \textsc {Grip} from the energy efficiency dataset\relax }{figure.caption.6}{}}
\newlabel{intro:energy@cref}{{[figure][1][1]1.1}{[1][2][]3}}
\citation{shannon1948}
\citation{shannon1948}
\citation{rao2004cumulative,di2009cumulative}
\citation{shannon1948}
\citation{rao2004cumulative}
\citation{di2009cumulative}
\citation{cooper1992bayesian,chickering1994learning,heckerman1995learning,heckerman2000dependency,teyssier2012ordering}
\@writefile{toc}{\contentsline {chapter}{\numberline {2}Related work}{5}{chapter.7}}
\@writefile{lof}{\addvspace {10\p@ }}
\@writefile{lot}{\addvspace {10\p@ }}
\@writefile{loa}{\addvspace {10\p@ }}
\newlabel{related}{{2}{5}{Related work}{chapter.7}{}}
\newlabel{related@cref}{{[chapter][2][]2}{[1][5][]5}}
\@writefile{toc}{\contentsline {paragraph}{Cumulative entropy}{5}{section*.8}}
\citation{cheng1997learning}
\citation{campos2006scoring}
\citation{cheng1997learning}
\citation{cheng1997learning}
\citation{cheng1997learning}
\citation{friedman1996discretizing}
\citation{lam1994learning}
\citation{grunwald2007minimum}
\citation{nguyen2016universal}
\citation{friedman1996discretizing}
\citation{friedman1996discretizing}
\@writefile{toc}{\contentsline {paragraph}{Dependency network reconstruction}{6}{section*.9}}
\@writefile{toc}{\contentsline {paragraph}{Discovering and measuring dependencies}{6}{section*.10}}
\citation{reshef2011detecting}
\citation{nguyen2014multivariate}
\citation{di2009cumulative}
\citation{nguyen2013cmi}
\citation{nguyen2016universal}
\citation{rao2004cumulative}
\citation{wang2017unbiased}
\citation{mandros2017discovering}
\citation{cavallo1987theory,reimherr2013quantifying}
\citation{mandros2017discovering}
\citation{mandros2017discovering}
\citation{mandros2017discovering}
\citation{cheng1999entropy}
\citation{ye2009projected}
\citation{cheng1999entropy}
\citation{ye2009projected}
\citation{keller2012hics}
\citation{budhathoki2017correlation}
\citation{kolmogorov1965three}
\citation{grunwald2007minimum}
\citation{budhathoki2017correlation}
\citation{quinlan2014c4,fayyad1993multi,cheng1988improved,fayyad1992induction,quinlan1990probabilistic}
\citation{fayyad1993multi}
\citation{nguyen2014unsupervised}
\citation{nguyen2014unsupervised}
\citation{nguyen2016universal}
\@writefile{toc}{\contentsline {paragraph}{Entropy based discretization}{10}{section*.12}}
\@writefile{toc}{\contentsline {chapter}{\numberline {3}Background}{11}{chapter.13}}
\@writefile{lof}{\addvspace {10\p@ }}
\@writefile{lot}{\addvspace {10\p@ }}
\@writefile{loa}{\addvspace {10\p@ }}
\newlabel{back}{{3}{11}{Background}{chapter.13}{}}
\newlabel{back@cref}{{[chapter][3][]3}{[1][11][]11}}
\@writefile{toc}{\contentsline {section}{\numberline {3.1}Notation}{11}{section.14}}
\newlabel{sec:notation}{{3.1}{11}{Notation}{section.14}{}}
\newlabel{sec:notation@cref}{{[section][1][3]3.1}{[1][11][]11}}
\citation{shannon1948}
\@writefile{lot}{\contentsline {table}{\numberline {3.1}{\ignorespaces Summary of the commonly used notations\relax }}{12}{table.caption.15}}
\newlabel{fig:notation}{{3.1}{12}{Summary of the commonly used notations\relax }{table.caption.15}{}}
\newlabel{fig:notation@cref}{{[table][1][3]3.1}{[1][11][]12}}
\@writefile{toc}{\contentsline {section}{\numberline {3.2}Entropy}{12}{section.16}}
\newlabel{sec:entropy}{{3.2}{12}{Entropy}{section.16}{}}
\newlabel{sec:entropy@cref}{{[section][2][3]3.2}{[1][12][]12}}
\citation{shannon1948}
\citation{rao2004cumulative,di2009cumulative}
\citation{nguyen2014multivariate}
\newlabel{def:ce}{{3.2}{13}{}{theorem.19}{}}
\newlabel{def:ce@cref}{{[theorem][2][3]3.2}{[1][13][]13}}
\newlabel{empirical_ce}{{3.2.3}{13}{Entropy}{equation.21}{}}
\newlabel{empirical_ce@cref}{{[equation][3][3,2]3.2.3}{[1][13][]13}}
\newlabel{cce}{{3.2.5}{13}{Entropy}{equation.23}{}}
\newlabel{cce@cref}{{[equation][5][3,2]3.2.5}{[1][13][]13}}
\citation{cavallo1987theory,reimherr2013quantifying}
\citation{nguyen2016universal}
\newlabel{FI}{{3.2.6}{14}{Entropy}{equation.24}{}}
\newlabel{FI@cref}{{[equation][6][3,2]3.2.6}{[1][14][]14}}
\@writefile{toc}{\contentsline {section}{\numberline {3.3}Dependency Score}{14}{section.25}}
\newlabel{sec:uds}{{3.3}{14}{Dependency Score}{section.25}{}}
\newlabel{sec:uds@cref}{{[section][3][3]3.3}{[1][14][]14}}
\newlabel{def:uds}{{3.3}{14}{}{theorem.26}{}}
\newlabel{def:uds@cref}{{[theorem][3][3]3.3}{[1][14][]14}}
\@writefile{toc}{\contentsline {chapter}{\numberline {4}Theory}{17}{chapter.27}}
\@writefile{lof}{\addvspace {10\p@ }}
\@writefile{lot}{\addvspace {10\p@ }}
\@writefile{loa}{\addvspace {10\p@ }}
\newlabel{theory}{{4}{17}{Theory}{chapter.27}{}}
\newlabel{theory@cref}{{[chapter][4][]4}{[1][17][]17}}
\@writefile{toc}{\contentsline {section}{\numberline {4.1}Dependency Network Reconstruction}{17}{section.28}}
\newlabel{sec:min_dn}{{4.1}{17}{Dependency Network Reconstruction}{section.28}{}}
\newlabel{sec:min_dn@cref}{{[section][1][4]4.1}{[1][17][]17}}
\@writefile{toc}{\contentsline {section}{\numberline {4.2}Minimal Cumulative Entropy Decomposition}{18}{section.29}}
\newlabel{sec:decompos}{{4.2}{18}{Minimal Cumulative Entropy Decomposition}{section.29}{}}
\newlabel{sec:decompos@cref}{{[section][2][4]4.2}{[1][18][]18}}
\newlabel{def:ce_naive}{{4.1}{18}{}{theorem.30}{}}
\newlabel{def:ce_naive@cref}{{[theorem][1][4]4.1}{[1][18][]18}}
\citation{nguyen2013cmi}
\newlabel{def:ce_full}{{4.2}{19}{}{theorem.31}{}}
\newlabel{def:ce_full@cref}{{[theorem][2][4]4.2}{[1][19][]19}}
\newlabel{def:ce_decomp}{{4.3}{19}{}{theorem.32}{}}
\newlabel{def:ce_decomp@cref}{{[theorem][3][4]4.3}{[1][19][]19}}
\newlabel{def:uds_rev}{{4.4}{20}{}{theorem.33}{}}
\newlabel{def:uds_rev@cref}{{[theorem][4][4]4.4}{[1][20][]20}}
\@writefile{toc}{\contentsline {section}{\numberline {4.3}Expected Empirical Cumulative Entropy}{20}{section.34}}
\newlabel{expected_ce}{{4.3}{20}{Expected Empirical Cumulative Entropy}{section.34}{}}
\newlabel{expected_ce@cref}{{[section][3][4]4.3}{[1][20][]20}}
\citation{robinson1977counting}
\citation{chickering1994learning}
\@writefile{toc}{\contentsline {section}{\numberline {4.4}The Problem}{21}{section.35}}
\newlabel{sec:problem}{{4.4}{21}{The Problem}{section.35}{}}
\newlabel{sec:problem@cref}{{[section][4][4]4.4}{[1][21][]21}}
\@writefile{toc}{\contentsline {chapter}{\numberline {5}Algorithm}{23}{chapter.37}}
\@writefile{lof}{\addvspace {10\p@ }}
\@writefile{lot}{\addvspace {10\p@ }}
\@writefile{loa}{\addvspace {10\p@ }}
\newlabel{alg}{{5}{23}{Algorithm}{chapter.37}{}}
\newlabel{alg@cref}{{[chapter][5][]5}{[1][23][]23}}
\@writefile{toc}{\contentsline {section}{\numberline {5.1}Outline}{23}{section.38}}
\newlabel{outline}{{5.1}{23}{Outline}{section.38}{}}
\newlabel{outline@cref}{{[section][1][5]5.1}{[1][23][]23}}
\citation{nguyen2016universal}
\newlabel{alg:outline_prep}{{1}{24}{Outline}{algocfline.39}{}}
\newlabel{alg:outline_prep@cref}{{[algocfline][1][]1}{[1][24][]24}}
\@writefile{loa}{\contentsline {algocf}{\numberline {1}{\ignorespaces \textsc  {Grip}\relax }}{24}{algocf.40}}
\newlabel{alg:alg_outline}{{1}{24}{Outline}{algocf.40}{}}
\newlabel{alg:alg_outline@cref}{{[algocf][1][]1}{[1][24][]24}}
\@writefile{toc}{\contentsline {section}{\numberline {5.2}Preprocessing}{24}{section.41}}
\newlabel{prep}{{5.2}{24}{Preprocessing}{section.41}{}}
\newlabel{prep@cref}{{[section][2][5]5.2}{[1][24][]24}}
\@writefile{loa}{\contentsline {algocf}{\numberline {2}{\ignorespaces \textsc  {Preprocessing}\relax }}{25}{algocf.44}}
\newlabel{alg:alg_preprocessing}{{2}{25}{Preprocessing}{algocf.44}{}}
\newlabel{alg:alg_preprocessing@cref}{{[algocf][2][]2}{[1][25][]25}}
\@writefile{toc}{\contentsline {section}{\numberline {5.3}Search Scheme}{25}{section.45}}
\newlabel{search}{{5.3}{25}{Search Scheme}{section.45}{}}
\newlabel{search@cref}{{[section][3][5]5.3}{[1][25][]25}}
\newlabel{line:jd}{{3}{26}{Search Scheme}{algocfline.46}{}}
\newlabel{line:jd@cref}{{[algocfline][3][]3}{[1][26][]26}}
\newlabel{line:multi_check_start}{{3}{26}{Search Scheme}{algocfline.46}{}}
\newlabel{line:multi_check_start@cref}{{[algocfline][3][]3}{[1][26][]26}}
\newlabel{line:multi:end}{{3}{26}{Search Scheme}{algocfline.46}{}}
\newlabel{line:multi:end@cref}{{[algocfline][3][]3}{[1][26][]26}}
\@writefile{loa}{\contentsline {algocf}{\numberline {3}{\ignorespaces \textsc  {Reconstruction}\relax }}{26}{algocf.47}}
\newlabel{alg:alg_search}{{3}{26}{Search Scheme}{algocf.47}{}}
\newlabel{alg:alg_search@cref}{{[algocf][3][]3}{[1][26][]26}}
\citation{nguyen2016universal}
\@writefile{toc}{\contentsline {section}{\numberline {5.4}Joint Discretization}{27}{section.48}}
\newlabel{jd}{{5.4}{27}{Joint Discretization}{section.48}{}}
\newlabel{jd@cref}{{[section][4][5]5.4}{[1][27][]27}}
\citation{nguyen2016universal}
\newlabel{line:start_jd}{{4}{28}{Joint Discretization}{algocfline.49}{}}
\newlabel{line:start_jd@cref}{{[algocfline][4][]4}{[1][28][]28}}
\newlabel{line:min_ce}{{4}{28}{Joint Discretization}{algocfline.49}{}}
\newlabel{line:min_ce@cref}{{[algocfline][4][]4}{[1][28][]28}}
\newlabel{line:stop1}{{4}{28}{Joint Discretization}{algocfline.49}{}}
\newlabel{line:stop1@cref}{{[algocfline][4][]4}{[1][28][]28}}
\newlabel{line:stop2}{{4}{28}{Joint Discretization}{algocfline.49}{}}
\newlabel{line:stop2@cref}{{[algocfline][4][]4}{[1][28][]28}}
\newlabel{line:end_jd}{{4}{28}{Joint Discretization}{algocfline.49}{}}
\newlabel{line:end_jd@cref}{{[algocfline][4][]4}{[1][28][]28}}
\@writefile{loa}{\contentsline {algocf}{\numberline {4}{\ignorespaces \textsc  {JointDiscretization}\relax }}{28}{algocf.50}}
\newlabel{alg:jd}{{4}{28}{Joint Discretization}{algocf.50}{}}
\newlabel{alg:jd@cref}{{[algocf][4][]4}{[1][28][]28}}
\citation{nguyen2016universal}
\@writefile{toc}{\contentsline {section}{\numberline {5.5}Variations of UDS}{29}{section.51}}
\newlabel{sec:var_uds}{{5.5}{29}{Variations of UDS}{section.51}{}}
\newlabel{sec:var_uds@cref}{{[section][5][5]5.5}{[1][28][]29}}
\@writefile{toc}{\contentsline {section}{\numberline {5.6}Complexity}{30}{section.54}}
\newlabel{compl}{{5.6}{30}{Complexity}{section.54}{}}
\newlabel{compl@cref}{{[section][6][5]5.6}{[1][29][]30}}
\@writefile{toc}{\contentsline {chapter}{\numberline {6}Experiments}{31}{chapter.56}}
\@writefile{lof}{\addvspace {10\p@ }}
\@writefile{lot}{\addvspace {10\p@ }}
\@writefile{loa}{\addvspace {10\p@ }}
\newlabel{exp}{{6}{31}{Experiments}{chapter.56}{}}
\newlabel{exp@cref}{{[chapter][6][]6}{[1][31][]31}}
\@writefile{toc}{\contentsline {section}{\numberline {6.1}Setup}{31}{section.57}}
\newlabel{setup}{{6.1}{31}{Setup}{section.57}{}}
\newlabel{setup@cref}{{[section][1][6]6.1}{[1][31][]31}}
\citation{Dua:2017}
\citation{nguyen2013cmi}
\@writefile{toc}{\contentsline {section}{\numberline {6.2}Quality of Entropy and Dependency Score Estimation}{32}{section.58}}
\newlabel{estimation}{{6.2}{32}{Quality of Entropy and Dependency Score Estimation}{section.58}{}}
\newlabel{estimation@cref}{{[section][2][6]6.2}{[1][32][]32}}
\newlabel{fig:dim_ce}{{6.1(a)}{33}{Subfigure 6 6.1(a)}{subfigure.60}{}}
\newlabel{fig:dim_ce@cref}{{[subfigure][1][6,1]6.1(a)}{[1][33][]33}}
\newlabel{sub@fig:dim_ce}{{(a)}{33}{Subfigure 6 6.1(a)\relax }{subfigure.60}{}}
\newlabel{fig:dim_ds}{{6.1(b)}{33}{Subfigure 6 6.1(b)}{subfigure.61}{}}
\newlabel{fig:dim_ds@cref}{{[subfigure][2][6,1]6.1(b)}{[1][33][]33}}
\newlabel{sub@fig:dim_ds}{{(b)}{33}{Subfigure 6 6.1(b)\relax }{subfigure.61}{}}
\@writefile{lof}{\contentsline {figure}{\numberline {6.1}{\ignorespaces [Closer to 0\% is better] Error of cumulative entropy and dependency score estimation w.r.t. increasing dimenasionality\relax }}{33}{figure.caption.59}}
\newlabel{fig:dim_est1}{{6.1}{33}{[Closer to 0\% is better] Error of cumulative entropy and dependency score estimation w.r.t. increasing dimenasionality\relax }{figure.caption.59}{}}
\newlabel{fig:dim_est1@cref}{{[figure][1][6]6.1}{[1][33][]33}}
\@writefile{lof}{\contentsline {subfigure}{\numberline{(a)}{\ignorespaces {Cumulative entropy estimation }}}{33}{figure.caption.59}}
\@writefile{lof}{\contentsline {subfigure}{\numberline{(b)}{\ignorespaces {Dependency score estimation }}}{33}{figure.caption.59}}
\@writefile{lof}{\contentsline {figure}{\numberline {6.2}{\ignorespaces [Closer to 0\% is better] Error of cumulative entropy estimation w.r.t. increasing dimensionality for the polynomial dependency\relax }}{34}{figure.caption.62}}
\newlabel{fig:dim_est_pol}{{6.2}{34}{[Closer to 0\% is better] Error of cumulative entropy estimation w.r.t. increasing dimensionality for the polynomial dependency\relax }{figure.caption.62}{}}
\newlabel{fig:dim_est_pol@cref}{{[figure][2][6]6.2}{[1][34][]34}}
\newlabel{fig:sub_ce}{{6.3(a)}{34}{Subfigure 6 6.3(a)}{subfigure.64}{}}
\newlabel{fig:sub_ce@cref}{{[subfigure][1][6,3]6.3(a)}{[1][34][]34}}
\newlabel{sub@fig:sub_ce}{{(a)}{34}{Subfigure 6 6.3(a)\relax }{subfigure.64}{}}
\newlabel{fig:sub_ds}{{6.3(b)}{34}{Subfigure 6 6.3(b)}{subfigure.65}{}}
\newlabel{fig:sub_ds@cref}{{[subfigure][2][6,3]6.3(b)}{[1][34][]34}}
\newlabel{sub@fig:sub_ds}{{(b)}{34}{Subfigure 6 6.3(b)\relax }{subfigure.65}{}}
\@writefile{lof}{\contentsline {figure}{\numberline {6.3}{\ignorespaces [Closer to 0\% is better] Error of cumulative entropy and dependency score estimation w.r.t. increasing subspace dimenasionality\relax }}{34}{figure.caption.63}}
\newlabel{fig:sub_est}{{6.3}{34}{[Closer to 0\% is better] Error of cumulative entropy and dependency score estimation w.r.t. increasing subspace dimenasionality\relax }{figure.caption.63}{}}
\newlabel{fig:sub_est@cref}{{[figure][3][6]6.3}{[1][34][]34}}
\@writefile{lof}{\contentsline {subfigure}{\numberline{(a)}{\ignorespaces {Cumulative entropy estimation }}}{34}{figure.caption.63}}
\@writefile{lof}{\contentsline {subfigure}{\numberline{(b)}{\ignorespaces {Dependency score estimation }}}{34}{figure.caption.63}}
\@writefile{lof}{\contentsline {figure}{\numberline {6.4}{\ignorespaces [Closer to 0\% is better] Error of cumulative entropy estimation w.r.t. increasing subspace dimensionality for the polynomial dependency\relax }}{35}{figure.caption.66}}
\newlabel{fig:sub_est_pol}{{6.4}{35}{[Closer to 0\% is better] Error of cumulative entropy estimation w.r.t. increasing subspace dimensionality for the polynomial dependency\relax }{figure.caption.66}{}}
\newlabel{fig:sub_est_pol@cref}{{[figure][4][6]6.4}{[1][35][]35}}
\@writefile{toc}{\contentsline {section}{\numberline {6.3}Quality of Dependency Network Reconstruction}{36}{section.67}}
\newlabel{fig:dn_dim_acc}{{6.5(a)}{37}{Subfigure 6 6.5(a)}{subfigure.69}{}}
\newlabel{fig:dn_dim_acc@cref}{{[subfigure][1][6,5]6.5(a)}{[1][36][]37}}
\newlabel{sub@fig:dn_dim_acc}{{(a)}{37}{Subfigure 6 6.5(a)\relax }{subfigure.69}{}}
\newlabel{fig:dn_dim_pr}{{6.5(b)}{37}{Subfigure 6 6.5(b)}{subfigure.70}{}}
\newlabel{fig:dn_dim_pr@cref}{{[subfigure][2][6,5]6.5(b)}{[1][36][]37}}
\newlabel{sub@fig:dn_dim_pr}{{(b)}{37}{Subfigure 6 6.5(b)\relax }{subfigure.70}{}}
\newlabel{fig:dn_dim_r}{{6.5(c)}{37}{Subfigure 6 6.5(c)}{subfigure.71}{}}
\newlabel{fig:dn_dim_r@cref}{{[subfigure][3][6,5]6.5(c)}{[1][36][]37}}
\newlabel{sub@fig:dn_dim_r}{{(c)}{37}{Subfigure 6 6.5(c)\relax }{subfigure.71}{}}
\@writefile{lof}{\contentsline {figure}{\numberline {6.5}{\ignorespaces Accuracy, precision and recall of dependency network reconstruction w.r.t. increasing data dimensionality. Results are averaged over the four dependency types, size of a dependent subspace is set to $k=3$. The legend shown in \Cref  {fig:dn_dim_acc} applies also to \Cref  {fig:dn_dim_pr} and \Cref  {fig:dn_dim_r}\relax }}{37}{figure.caption.68}}
\newlabel{fig:dn_dim}{{6.5}{37}{Accuracy, precision and recall of dependency network reconstruction w.r.t. increasing data dimensionality. Results are averaged over the four dependency types, size of a dependent subspace is set to $k=3$. The legend shown in \Cref {fig:dn_dim_acc} applies also to \Cref {fig:dn_dim_pr} and \Cref {fig:dn_dim_r}\relax }{figure.caption.68}{}}
\newlabel{fig:dn_dim@cref}{{[figure][5][6]6.5}{[1][36][]37}}
\@writefile{lof}{\contentsline {subfigure}{\numberline{(a)}{\ignorespaces {Accuracy }}}{37}{figure.caption.68}}
\@writefile{lof}{\contentsline {subfigure}{\numberline{(b)}{\ignorespaces {Precision }}}{37}{figure.caption.68}}
\@writefile{lof}{\contentsline {subfigure}{\numberline{(c)}{\ignorespaces {Precision }}}{37}{figure.caption.68}}
\@writefile{lot}{\contentsline {table}{\numberline {6.1}{\ignorespaces [Lower value is better] Probability that a randomly reconstructed network is at least as accurate as the network reconstructed by \textsc  {Grip}, \textsc  {UDS}, \textsc  {UDS\texttt  {+}} and \textsc  {UDS\texttt  {++}} respectively\relax }}{38}{table.caption.72}}
\newlabel{table:prob}{{6.1}{38}{[Lower value is better] Probability that a randomly reconstructed network is at least as accurate as the network reconstructed by \textsc {Grip}, \textsc {UDS}, \textsc {UDS\texttt {+}} and \textsc {UDS\texttt {++}} respectively\relax }{table.caption.72}{}}
\newlabel{table:prob@cref}{{[table][1][6]6.1}{[1][37][]38}}
\newlabel{fig:dn_sub_acc}{{6.6(a)}{38}{Subfigure 6 6.6(a)}{subfigure.74}{}}
\newlabel{fig:dn_sub_acc@cref}{{[subfigure][1][6,6]6.6(a)}{[1][38][]38}}
\newlabel{sub@fig:dn_sub_acc}{{(a)}{38}{Subfigure 6 6.6(a)\relax }{subfigure.74}{}}
\newlabel{fig:dn_sub_pr}{{6.6(b)}{38}{Subfigure 6 6.6(b)}{subfigure.75}{}}
\newlabel{fig:dn_sub_pr@cref}{{[subfigure][2][6,6]6.6(b)}{[1][38][]38}}
\newlabel{sub@fig:dn_sub_pr}{{(b)}{38}{Subfigure 6 6.6(b)\relax }{subfigure.75}{}}
\newlabel{fig:dn_sub_r}{{6.6(c)}{38}{Subfigure 6 6.6(c)}{subfigure.76}{}}
\newlabel{fig:dn_sub_r@cref}{{[subfigure][3][6,6]6.6(c)}{[1][38][]38}}
\newlabel{sub@fig:dn_sub_r}{{(c)}{38}{Subfigure 6 6.6(c)\relax }{subfigure.76}{}}
\@writefile{lof}{\contentsline {figure}{\numberline {6.6}{\ignorespaces Accuracy, precision and recall of dependency network reconstruction w.r.t. increasing subspace dimensionality. Results are averaged over the four dependency types, dataset size is set to $10000\times 30$. The legend shown in \Cref  {fig:dn_sub_acc} applies also to \Cref  {fig:dn_sub_pr} and \Cref  {fig:dn_sub_r}\relax }}{38}{figure.caption.73}}
\newlabel{fig:dn_sub}{{6.6}{38}{Accuracy, precision and recall of dependency network reconstruction w.r.t. increasing subspace dimensionality. Results are averaged over the four dependency types, dataset size is set to $10000\times 30$. The legend shown in \Cref {fig:dn_sub_acc} applies also to \Cref {fig:dn_sub_pr} and \Cref {fig:dn_sub_r}\relax }{figure.caption.73}{}}
\newlabel{fig:dn_sub@cref}{{[figure][6][6]6.6}{[1][38][]38}}
\@writefile{lof}{\contentsline {subfigure}{\numberline{(a)}{\ignorespaces {Accuracy }}}{38}{figure.caption.73}}
\@writefile{lof}{\contentsline {subfigure}{\numberline{(b)}{\ignorespaces {Precision }}}{38}{figure.caption.73}}
\@writefile{lof}{\contentsline {subfigure}{\numberline{(c)}{\ignorespaces {Recall }}}{38}{figure.caption.73}}
\newlabel{fig:dn_noise_acc}{{6.7(a)}{39}{Subfigure 6 6.7(a)}{subfigure.78}{}}
\newlabel{fig:dn_noise_acc@cref}{{[subfigure][1][6,7]6.7(a)}{[1][39][]39}}
\newlabel{sub@fig:dn_noise_acc}{{(a)}{39}{Subfigure 6 6.7(a)\relax }{subfigure.78}{}}
\newlabel{fig:dn_noise_pr}{{6.7(b)}{39}{Subfigure 6 6.7(b)}{subfigure.79}{}}
\newlabel{fig:dn_noise_pr@cref}{{[subfigure][2][6,7]6.7(b)}{[1][39][]39}}
\newlabel{sub@fig:dn_noise_pr}{{(b)}{39}{Subfigure 6 6.7(b)\relax }{subfigure.79}{}}
\newlabel{fig:dn_noise_r}{{6.7(c)}{39}{Subfigure 6 6.7(c)}{subfigure.80}{}}
\newlabel{fig:dn_noise_r@cref}{{[subfigure][3][6,7]6.7(c)}{[1][39][]39}}
\newlabel{sub@fig:dn_noise_r}{{(c)}{39}{Subfigure 6 6.7(c)\relax }{subfigure.80}{}}
\@writefile{lof}{\contentsline {figure}{\numberline {6.7}{\ignorespaces Accuracy, precision and recall of dependency network reconstruction w.r.t. increasing noise level. Results are averaged over the four dependency types, dataset size is set to $10000\times 20$. The legend shown in \Cref  {fig:dn_noise_acc} applies also to \Cref  {fig:dn_noise_pr} and \Cref  {fig:dn_noise_r}\relax }}{39}{figure.caption.77}}
\newlabel{fig:dn_noise}{{6.7}{39}{Accuracy, precision and recall of dependency network reconstruction w.r.t. increasing noise level. Results are averaged over the four dependency types, dataset size is set to $10000\times 20$. The legend shown in \Cref {fig:dn_noise_acc} applies also to \Cref {fig:dn_noise_pr} and \Cref {fig:dn_noise_r}\relax }{figure.caption.77}{}}
\newlabel{fig:dn_noise@cref}{{[figure][7][6]6.7}{[1][39][]39}}
\@writefile{lof}{\contentsline {subfigure}{\numberline{(a)}{\ignorespaces {Accuracy }}}{39}{figure.caption.77}}
\@writefile{lof}{\contentsline {subfigure}{\numberline{(b)}{\ignorespaces {Precision }}}{39}{figure.caption.77}}
\@writefile{lof}{\contentsline {subfigure}{\numberline{(c)}{\ignorespaces {Recall }}}{39}{figure.caption.77}}
\citation{tsanas2012accurate}
\@writefile{lof}{\contentsline {figure}{\numberline {6.8}{\ignorespaces Run-time (in seconds) for \textsc  {Grip} and \textsc  {UDS\texttt  {++}} for different dimensionalities of data. Size of a dependent subspace is fixed to $k = 5$\relax }}{40}{figure.caption.81}}
\newlabel{fig:run}{{6.8}{40}{Run-time (in seconds) for \textsc {Grip} and \textsc {UDS\texttt {++}} for different dimensionalities of data. Size of a dependent subspace is fixed to $k = 5$\relax }{figure.caption.81}{}}
\newlabel{fig:run@cref}{{[figure][8][6]6.8}{[1][39][]40}}
\@writefile{toc}{\contentsline {section}{\numberline {6.4}Performance on Real Data}{40}{section.82}}
\newlabel{real_data}{{6.4}{40}{Performance on Real Data}{section.82}{}}
\newlabel{real_data@cref}{{[section][4][6]6.4}{[1][40][]40}}
\citation{charytanowicz2010complete}
\citation{kahraman2013development}
\@writefile{lof}{\contentsline {figure}{\numberline {6.9}{\ignorespaces Dependency network reconstructed from the energy efficiency dataset\relax }}{41}{figure.caption.84}}
\newlabel{net:energy}{{6.9}{41}{Dependency network reconstructed from the energy efficiency dataset\relax }{figure.caption.84}{}}
\newlabel{net:energy@cref}{{[figure][9][6]6.9}{[1][41][]41}}
\citation{liu2017using}
\@writefile{lof}{\contentsline {figure}{\numberline {6.10}{\ignorespaces Dependency network reconstructed from the seeds dataset\relax }}{42}{figure.caption.85}}
\newlabel{net:kernels}{{6.10}{42}{Dependency network reconstructed from the seeds dataset\relax }{figure.caption.85}{}}
\newlabel{net:kernels@cref}{{[figure][10][6]6.10}{[1][41][]42}}
\@writefile{lof}{\contentsline {figure}{\numberline {6.11}{\ignorespaces Dependency network reconstructed from the stock portfolio performance dataset\relax }}{43}{figure.caption.86}}
\newlabel{net:stock}{{6.11}{43}{Dependency network reconstructed from the stock portfolio performance dataset\relax }{figure.caption.86}{}}
\newlabel{net:stock@cref}{{[figure][11][6]6.11}{[1][42][]43}}
\@writefile{lof}{\contentsline {figure}{\numberline {6.12}{\ignorespaces Dependency network reconstructed from the chronic kidney disease dataset\relax }}{44}{figure.caption.87}}
\newlabel{net:ckd}{{6.12}{44}{Dependency network reconstructed from the chronic kidney disease dataset\relax }{figure.caption.87}{}}
\newlabel{net:ckd@cref}{{[figure][12][6]6.12}{[1][43][]44}}
\citation{nguyen2014multivariate}
\@writefile{lot}{\contentsline {table}{\numberline {6.2}{\ignorespaces Cumulative entropy estimated by \textsc  {Grip}, \textsc  {UDS} and \textsc  {UDS\texttt  {++}} on real data\relax }}{45}{table.caption.89}}
\newlabel{table:real_ce}{{6.2}{45}{Cumulative entropy estimated by \textsc {Grip}, \textsc {UDS} and \textsc {UDS\texttt {++}} on real data\relax }{table.caption.89}{}}
\newlabel{table:real_ce@cref}{{[table][2][6]6.2}{[1][45][]45}}
\@writefile{lot}{\contentsline {table}{\numberline {6.3}{\ignorespaces Amount of dependencies detected by \textsc  {Grip}, \textsc  {UDS}, \textsc  {UDS\texttt  {++}} and \textsc  {MAC} in real data\relax }}{46}{table.caption.90}}
\newlabel{table:real_dep}{{6.3}{46}{Amount of dependencies detected by \textsc {Grip}, \textsc {UDS}, \textsc {UDS\texttt {++}} and \textsc {MAC} in real data\relax }{table.caption.90}{}}
\newlabel{table:real_dep@cref}{{[table][3][6]6.3}{[1][46][]46}}
\@writefile{lot}{\contentsline {table}{\numberline {6.4}{\ignorespaces Run-time (in seconds) for \textsc  {Grip}, \textsc  {UDS}, \textsc  {UDS\texttt  {++}} and \textsc  {MAC} on real data\relax }}{46}{table.caption.91}}
\newlabel{table:real_runtime}{{6.4}{46}{Run-time (in seconds) for \textsc {Grip}, \textsc {UDS}, \textsc {UDS\texttt {++}} and \textsc {MAC} on real data\relax }{table.caption.91}{}}
\newlabel{table:real_runtime@cref}{{[table][4][6]6.4}{[1][46][]46}}
\@writefile{toc}{\contentsline {chapter}{\numberline {7}Discussion}{47}{chapter.92}}
\@writefile{lof}{\addvspace {10\p@ }}
\@writefile{lot}{\addvspace {10\p@ }}
\@writefile{loa}{\addvspace {10\p@ }}
\newlabel{discuss}{{7}{47}{Discussion}{chapter.92}{}}
\newlabel{discuss@cref}{{[chapter][7][]7}{[1][47][]47}}
\citation{di2009cumulative}
\citation{grunwald2007minimum}
\@writefile{toc}{\contentsline {chapter}{\numberline {8}Conclusion}{53}{chapter.95}}
\@writefile{lof}{\addvspace {10\p@ }}
\@writefile{lot}{\addvspace {10\p@ }}
\@writefile{loa}{\addvspace {10\p@ }}
\newlabel{conclusion}{{8}{53}{Conclusion}{chapter.95}{}}
\newlabel{conclusion@cref}{{[chapter][8][]8}{[1][53][]53}}
\@writefile{toc}{\vspace  {2em}}
\@writefile{toc}{\contentsline {chapter}{List of Figures}{54}{dummy.96}}
\@writefile{toc}{\contentsline {chapter}{List of Tables}{57}{dummy.98}}
\@input{backmatter/appendix.aux}
\@writefile{toc}{\vspace  {2em}}
\bibstyle{unsrtnat}
\bibdata{bib/references}
\bibcite{chickering1994learning}{{1}{1994}{{Chickering et~al.}}{{Chickering, Geiger, Heckerman, et~al.}}}
\bibcite{rao2004cumulative}{{2}{2004}{{Rao et~al.}}{{Rao, Chen, Vemuri, and Wang}}}
\bibcite{di2009cumulative}{{3}{2009}{{Di~Crescenzo and Longobardi}}{{}}}
\bibcite{nguyen2016universal}{{4}{2016}{{Nguyen et~al.}}{{Nguyen, Mandros, and Vreeken}}}
\bibcite{tsanas2012accurate}{{5}{2012}{{Tsanas and Xifara}}{{}}}
\bibcite{shannon1948}{{6}{1948}{{Shannon}}{{}}}
\bibcite{cooper1992bayesian}{{7}{1992}{{Cooper and Herskovits}}{{}}}
\bibcite{heckerman1995learning}{{8}{1995}{{Heckerman et~al.}}{{Heckerman, Geiger, and Chickering}}}
\bibcite{heckerman2000dependency}{{9}{2000}{{Heckerman et~al.}}{{Heckerman, Chickering, Meek, Rounthwaite, and Kadie}}}
\bibcite{teyssier2012ordering}{{10}{2012}{{Teyssier and Koller}}{{}}}
\bibcite{cheng1997learning}{{11}{1997}{{Cheng et~al.}}{{Cheng, Bell, and Liu}}}
\@writefile{toc}{\contentsline {chapter}{Bibliography}{67}{dummy.133}}
\newlabel{Bibliography}{{5}{67}{Dependency network reconstruction}{dummy.133}{}}
\newlabel{Bibliography@cref}{{[dummy][5][2147483647]5}{[1][67][]67}}
\bibcite{campos2006scoring}{{12}{2006}{{Campos}}{{}}}
\bibcite{friedman1996discretizing}{{13}{1996}{{Friedman et~al.}}{{Friedman, Goldszmidt, et~al.}}}
\bibcite{lam1994learning}{{14}{1994}{{Lam and Bacchus}}{{}}}
\bibcite{grunwald2007minimum}{{15}{2007}{{Gr{\"u}nwald}}{{}}}
\bibcite{reshef2011detecting}{{16}{2011}{{Reshef et~al.}}{{Reshef, Reshef, Finucane, Grossman, McVean, Turnbaugh, Lander, Mitzenmacher, and Sabeti}}}
\bibcite{nguyen2014multivariate}{{17}{2014{a}}{{Nguyen et~al.}}{{Nguyen, M{\"u}ller, Vreeken, Efros, and B{\"o}hm}}}
\bibcite{nguyen2013cmi}{{18}{2013}{{Nguyen et~al.}}{{Nguyen, M{\"u}ller, Vreeken, Keller, and B{\"o}hm}}}
\bibcite{wang2017unbiased}{{19}{2017}{{Wang et~al.}}{{Wang, Romano, Nguyen, Bailey, Ma, and Xia}}}
\bibcite{mandros2017discovering}{{20}{2017}{{Mandros et~al.}}{{Mandros, Boley, and Vreeken}}}
\bibcite{cavallo1987theory}{{21}{1987}{{Cavallo and Pittarelli}}{{}}}
\bibcite{reimherr2013quantifying}{{22}{2013}{{Reimherr and Nicolae}}{{}}}
\bibcite{cheng1999entropy}{{23}{1999}{{Cheng et~al.}}{{Cheng, Fu, and Zhang}}}
\bibcite{ye2009projected}{{24}{2009}{{Ye et~al.}}{{Ye, Li, and Orlowska}}}
\bibcite{keller2012hics}{{25}{2012}{{Keller et~al.}}{{Keller, Muller, and Bohm}}}
\bibcite{budhathoki2017correlation}{{26}{2017}{{Budhathoki and Vreeken}}{{}}}
\bibcite{kolmogorov1965three}{{27}{1965}{{Kolmogorov}}{{}}}
\bibcite{quinlan2014c4}{{28}{2014}{{Quinlan}}{{}}}
\bibcite{fayyad1993multi}{{29}{1993}{{Fayyad and Irani}}{{}}}
\bibcite{cheng1988improved}{{30}{1988}{{Cheng et~al.}}{{Cheng, Fayyad, Irani, and Qian}}}
\bibcite{fayyad1992induction}{{31}{1992}{{Fayyad}}{{}}}
\bibcite{quinlan1990probabilistic}{{32}{1990}{{Quinlan}}{{}}}
\bibcite{nguyen2014unsupervised}{{33}{2014{b}}{{Nguyen et~al.}}{{Nguyen, M{\"u}ller, Vreeken, and B{\"o}hm}}}
\bibcite{robinson1977counting}{{34}{1977}{{Robinson}}{{}}}
\bibcite{Dua:2017}{{35}{2017}{{Dheeru and Karra~Taniskidou}}{{}}}
\bibcite{charytanowicz2010complete}{{36}{2010}{{Charytanowicz et~al.}}{{Charytanowicz, Niewczas, Kulczycki, Kowalski, {\L }ukasik, and {\.Z}ak}}}
\bibcite{kahraman2013development}{{37}{2013}{{Kahraman et~al.}}{{Kahraman, Sagiroglu, and Colak}}}
\bibcite{liu2017using}{{38}{2017}{{Liu and Yeh}}{{}}}
