
nr dims: 20
nr outliers: 4
i: 1true ce: 6.31310870197e+73, mce: 5.31937470714e+71, uds: 3.4533372459e+73
true score: 0.1747137249, mce: 0.9998688748, uds: 0.0

nr dims: 20
nr outliers: 4
i: 2true ce: 1.21384078037e+22, mce: 7.05269896407e+21, uds: 1.42377151767e+22
true score: 0.1711134861, mce: 0.5369672047, uds: 0.0

nr dims: 20
nr outliers: 4
i: 3true ce: 8.37670926961e+67, mce: 3.35648375718e+66, uds: 9.65663653204e+67
true score: 0.1344723992, mce: 0.9787165409, uds: 0.0
