nr dims: 20
nr outliers: 4
av. pr. of the network at random, mce: 0.00024542413709
av. pr. of the network or a better one at random, mce: 5.50715749497e-06
av. pr. of the network at random, uds: 0.257727327739
av. pr. of the network or a better one at random, uds: 0.112784633353

