dimensions: [2, 10, 20, 30, 40, 50]

acc mce: [1.0, 0.9877551020408163, 0.9908781694495981, 0.9945945671747787, 0.993943200779919, 0.9951589433393518]
pr. mce: [1.0, 0.9428571428571428, 0.9120879120879121, 0.9178947368421053, 0.878017094017094, 0.875733137829912]
r. mce: [1.0, 0.9666666666666668, 0.95, 0.9555555555555555, 0.9333333333333333, 0.9333333333333333]

acc uds: [1.0, 0.0851063829787234, 0.041237113402061855, 0.027210884353741492, 0.02030456852791878, 0.016194331983805668]
pr. uds: [1.0, 0.08888888888888889, 0.042105263157894736, 0.027586206896551724, 0.020512820512820513, 0.0163265306122449]
r. uds: [1.0, 0.6666666666666666, 0.6666666666666666, 0.6666666666666666, 0.6666666666666666, 0.6666666666666666]

acc uds jd: [1.0, 0.723404255319149, 0.8505154639175257, 0.8988662131519275, 0.9230964467005076, 0.9305263157894738]
pr. uds jd: [1.0, 0.11111111111111112, 0.05263157894736842, 0.04137931034482759, 0.030769230769230764, 0.022512097622554173]
r. uds jd: [1.0, 0.16666666666666666, 0.08333333333333333, 0.06666666666666668, 0.049999999999999996, 0.04666666666666666]

acc uds x jd: [1.0, 0.8425531914893616, 0.9164948453608248, 0.943310657596372, 0.9565989847715736, 0.9651821862348179]
pr. uds x jd: [1.0, 0.42222222222222217, 0.3894736842105263, 0.3793103448275862, 0.3692307692307692, 0.36734693877551017]
r. uds x jd: [1.0, 0.6333333333333332, 0.6166666666666666, 0.6111111111111112, 0.6, 0.6]
