nr dims: 2
nr outliers: 0
av. pr. of the network at random, mce: 0.333333333333
av. pr. of the network or a better one at random, mce: 0.0833333333333
av. pr. of the network at random, uds: 0.333333333333
av. pr. of the network or a better one at random, uds: 0.0833333333333

