
nr dims: 20
nr outliers: 4
i: 1true ce: 6.90925240938e+138, mce: 3.45431015553e+138, uds: 3.45431015553e+138true score: 0.2497602287, mce: 0.5037143879, uds: 0.0

nr dims: 20
nr outliers: 4
i: 2true ce: 1.2419727023e+176, mce: 6.20924292422e+175, uds: 6.20924292422e+175true score: 0.39675518, mce: 0.4018282906, uds: 0.0

nr dims: 20
nr outliers: 4
i: 3true ce: 1.82540734225e+137, mce: 1.82522503256e+137, uds: 1.82522503256e+137true score: 0.6344423219, mce: 0.6173138546, uds: 0.0
