nr dims: 20
nr outliers: 4
av. pr. of the network at random, mce: 0.16241503562
av. pr. of the network or a better one at random, mce: 0.0152563757263
av. pr. of the network at random, uds: 0.189229474924
av. pr. of the network or a better one at random, uds: 0.0100760606943

