nr dims: 20
nr outliers: 4
av. pr. of the network at random, mce: 0.231559660316
av. pr. of the network or a better one at random, mce: 0.0400943294003
av. pr. of the network at random, uds: 0.189229474924
av. pr. of the network or a better one at random, uds: 0.0100760606943

