
nr dims: 20
nr outliers: 4
i: 1true ce: 3.41024872663e+68, mce: 1.70500756828e+68, uds: 1.70500756828e+68
true score:  0.6993622979,      mce: 0.7522219244, uds: 0.0

nr dims: 20
nr outliers: 4
i: 2true ce: 8.85541939637e+27, mce: 8.85456818675e+27, uds: 8.85456818675e+27
true score:  0.5023532215,      mce: 0.5506239313,      uds: 0.0

nr dims: 20
nr outliers: 4
i: 3true ce: 1.36563376351e+59, mce: 1.36549723228e+59, uds: 1.36549723228e+59t
rue score:   0.2448878622,      mce: 0.7416955832,      uds: 0.0
