
nr dims: 20
nr outliers: 4
i: 1true ce: 1.79132592102e+51, mce: 1.79114681539e+51, uds: 1.79114681539e+51true score: 0.5940922434, mce: 0.656532709, uds: 0.0

nr dims: 20
nr outliers: 4
i: 2true ce: 6.74516926111e+60, mce: 6.744494889e+60, uds: 6.744494889e+60true score: 0.7301027958, mce: 0.8394248346, uds: 0.0

nr dims: 20
nr outliers: 4
i: 3true ce: 1.2046402642e+33, mce: 1.20451983243e+33, uds: 1.20451983243e+33true score: 0.6275581783, mce: 0.653180541, uds: 0.0

nr dims: 20
nr outliers: 4
i: 4true ce: 2.1993353832e+45, mce: 1.0995577422e+45, uds: 1.0995577422e+45true score: 0.3479242158, mce: 0.73373991, uds: 0.0
