
MCE with ordered dimensions/UDS with JD

h(X0,...,X9) = 301.676383137

UDS_jd = 0.126108912162
uds++ time dim 10: 132.04197597503662

MCE with ordered dimensions/UDS with JD

h(X0,...,X19) = 575.542474604

UDS_jd = 0.0732910608253
uds++ time dim 20: 531.63481092453

MCE with ordered dimensions/UDS with JD

h(X0,...,X29) = 1050.78058169

UDS_jd = 0.104599747922
uds++ time dim 30: 1227.19043302536

MCE with ordered dimensions/UDS with JD

h(X0,...,X39) = 1336.71297495

UDS_jd = 0.0680250963917
uds++ time dim 40: 2227.1640751361847

MCE with ordered dimensions/UDS with JD

h(X0,...,X49) = 1745.53164421

UDS_jd = 0.121709037698
uds++ time dim 50: 3485.512678861618
