\relax 
\providecommand\hyper@newdestlabel[2]{}
\@writefile{toc}{\contentsline {chapter}{\numberline {A}More Results on Synthetic Data}{59}{appendix.100}}
\@writefile{lof}{\addvspace {10\p@ }}
\@writefile{lot}{\addvspace {10\p@ }}
\@writefile{loa}{\addvspace {10\p@ }}
\@writefile{toc}{\contentsline {section}{\numberline {A.1}Cumulative Entropy and Dependency Score Estimation}{59}{section.101}}
\newlabel{app:estimation}{{A.1}{59}{Cumulative Entropy and Dependency Score Estimation}{section.101}{}}
\newlabel{app:estimation@cref}{{[subappendix][1][2147483647,1]A.1}{[1][59][]59}}
\@writefile{lot}{\contentsline {table}{\numberline {A.1}{\ignorespaces Estimation error of the cumulative entropy w.r.t. increasing data dimensionality for linear, loglinear, polynomial and logpolynomial dependencies. All values given in \%. \texttt  {+} and \texttt  {-} indicate overestimation and underestimation respectively\relax }}{60}{table.caption.102}}
\newlabel{table:ce}{{A.1}{60}{Estimation error of the cumulative entropy w.r.t. increasing data dimensionality for linear, loglinear, polynomial and logpolynomial dependencies. All values given in \%. \texttt {+} and \texttt {-} indicate overestimation and underestimation respectively\relax }{table.caption.102}{}}
\newlabel{table:ce@cref}{{[table][1][2147483647,1]A.1}{[1][59][]60}}
\@writefile{lot}{\contentsline {table}{\numberline {A.2}{\ignorespaces Estimation error of the dependency score for different algorithms w.r.t. increasing data dimensionality for linear, loglinear, polynomial and logpolynomial dependencies. All values given in \%. \texttt  {+} and \texttt  {-} indicate overestimation and underestimation respectively\relax }}{61}{table.caption.103}}
\newlabel{table:ds}{{A.2}{61}{Estimation error of the dependency score for different algorithms w.r.t. increasing data dimensionality for linear, loglinear, polynomial and logpolynomial dependencies. All values given in \%. \texttt {+} and \texttt {-} indicate overestimation and underestimation respectively\relax }{table.caption.103}{}}
\newlabel{table:ds@cref}{{[table][2][2147483647,1]A.2}{[1][59][]61}}
\@writefile{lot}{\contentsline {table}{\numberline {A.3}{\ignorespaces Estimation error of the cumulative entropy w.r.t. increasing subspace dimensionality for linear, loglinear, polynomial and logpolynomial dependencies. All values given in \%. \texttt  {+} and \texttt  {-} indicate overestimation and underestimation respectively\relax }}{62}{table.caption.104}}
\newlabel{table:ce_sub}{{A.3}{62}{Estimation error of the cumulative entropy w.r.t. increasing subspace dimensionality for linear, loglinear, polynomial and logpolynomial dependencies. All values given in \%. \texttt {+} and \texttt {-} indicate overestimation and underestimation respectively\relax }{table.caption.104}{}}
\newlabel{table:ce_sub@cref}{{[table][3][2147483647,1]A.3}{[1][60][]62}}
\@writefile{toc}{\contentsline {section}{\numberline {A.2}Dependency network reconstruction}{62}{section.106}}
\newlabel{app:network}{{A.2}{62}{Dependency network reconstruction}{section.106}{}}
\newlabel{app:network@cref}{{[subappendix][2][2147483647,1]A.2}{[1][61][]62}}
\newlabel{fig_dim_legeng}{{A.1(a)}{63}{Subfigure A A.1(a)}{subfigure.108}{}}
\newlabel{fig_dim_legeng@cref}{{[subfigure][1][2147483647,1,1]A.1(a)}{[1][62][]63}}
\newlabel{sub@fig_dim_legeng}{{(a)}{63}{Subfigure A A.1(a)\relax }{subfigure.108}{}}
\@writefile{lof}{\contentsline {figure}{\numberline {A.1}{\ignorespaces Accuracy, precision and recall of dependency network reconstruction w.r.t. increasing data dimensionality for linear, polynomial, loglinear and logpolynomial dependencies. Size of a dependent subspace is set to $k=3$. The legend shown in \Cref  {fig_dim_legeng} applies also to the rest of the figures\relax }}{63}{figure.caption.107}}
\newlabel{app:dn_dim}{{A.1}{63}{Accuracy, precision and recall of dependency network reconstruction w.r.t. increasing data dimensionality for linear, polynomial, loglinear and logpolynomial dependencies. Size of a dependent subspace is set to $k=3$. The legend shown in \Cref {fig_dim_legeng} applies also to the rest of the figures\relax }{figure.caption.107}{}}
\newlabel{app:dn_dim@cref}{{[figure][1][2147483647,1]A.1}{[1][62][]63}}
\@writefile{lof}{\contentsline {subfigure}{\numberline{(a)}{\ignorespaces {Linear: accuracy }}}{63}{figure.caption.107}}
\@writefile{lof}{\contentsline {subfigure}{\numberline{(b)}{\ignorespaces {Linear: precision}}}{63}{figure.caption.107}}
\@writefile{lof}{\contentsline {subfigure}{\numberline{(c)}{\ignorespaces {Linear: recall}}}{63}{figure.caption.107}}
\@writefile{lof}{\contentsline {subfigure}{\numberline{(d)}{\ignorespaces {Polynomial: accuracy}}}{63}{figure.caption.107}}
\@writefile{lof}{\contentsline {subfigure}{\numberline{(e)}{\ignorespaces {Polynomial: precision}}}{63}{figure.caption.107}}
\@writefile{lof}{\contentsline {subfigure}{\numberline{(f)}{\ignorespaces {Polynomial: recall}}}{63}{figure.caption.107}}
\@writefile{lof}{\contentsline {subfigure}{\numberline{(g)}{\ignorespaces {Loglinear: accuracy}}}{63}{figure.caption.107}}
\@writefile{lof}{\contentsline {subfigure}{\numberline{(h)}{\ignorespaces {Loglinear: precision}}}{63}{figure.caption.107}}
\@writefile{lof}{\contentsline {subfigure}{\numberline{(i)}{\ignorespaces {Loglinear: recall}}}{63}{figure.caption.107}}
\@writefile{lof}{\contentsline {subfigure}{\numberline{(j)}{\ignorespaces {Logpolynomial: accuracy}}}{63}{figure.caption.107}}
\@writefile{lof}{\contentsline {subfigure}{\numberline{(k)}{\ignorespaces {Logpolynomial: precision}}}{63}{figure.caption.107}}
\@writefile{lof}{\contentsline {subfigure}{\numberline{(l)}{\ignorespaces {Logpolynomial: recall}}}{63}{figure.caption.107}}
\newlabel{fig:sub_legend}{{A.2(a)}{64}{Subfigure A A.2(a)}{subfigure.121}{}}
\newlabel{fig:sub_legend@cref}{{[subfigure][1][2147483647,1,2]A.2(a)}{[1][62][]64}}
\newlabel{sub@fig:sub_legend}{{(a)}{64}{Subfigure A A.2(a)\relax }{subfigure.121}{}}
\@writefile{lof}{\contentsline {figure}{\numberline {A.2}{\ignorespaces Accuracy, precision and recall of dependency network reconstruction w.r.t. increasing subspace dimensionality for linear, polynomial, loglinear and logpolynomial dependencies. Dataset size is set to $10000\times 30$. The legend shown in \Cref  {fig:sub_legend} applies also to the rest of the figures\relax }}{64}{figure.caption.120}}
\newlabel{app:dn_sib}{{A.2}{64}{Accuracy, precision and recall of dependency network reconstruction w.r.t. increasing subspace dimensionality for linear, polynomial, loglinear and logpolynomial dependencies. Dataset size is set to $10000\times 30$. The legend shown in \Cref {fig:sub_legend} applies also to the rest of the figures\relax }{figure.caption.120}{}}
\newlabel{app:dn_sib@cref}{{[figure][2][2147483647,1]A.2}{[1][62][]64}}
\@writefile{lof}{\contentsline {subfigure}{\numberline{(a)}{\ignorespaces {Linear: accuracy }}}{64}{figure.caption.120}}
\@writefile{lof}{\contentsline {subfigure}{\numberline{(b)}{\ignorespaces {Linear: precision}}}{64}{figure.caption.120}}
\@writefile{lof}{\contentsline {subfigure}{\numberline{(c)}{\ignorespaces {Linear: recall}}}{64}{figure.caption.120}}
\@writefile{lof}{\contentsline {subfigure}{\numberline{(d)}{\ignorespaces {Polynomial: accuracy}}}{64}{figure.caption.120}}
\@writefile{lof}{\contentsline {subfigure}{\numberline{(e)}{\ignorespaces {Polynomial: precision}}}{64}{figure.caption.120}}
\@writefile{lof}{\contentsline {subfigure}{\numberline{(f)}{\ignorespaces {Polynomial: recall}}}{64}{figure.caption.120}}
\@writefile{lof}{\contentsline {subfigure}{\numberline{(g)}{\ignorespaces {Loglinear: accuracy}}}{64}{figure.caption.120}}
\@writefile{lof}{\contentsline {subfigure}{\numberline{(h)}{\ignorespaces {Loglinear: precision}}}{64}{figure.caption.120}}
\@writefile{lof}{\contentsline {subfigure}{\numberline{(i)}{\ignorespaces {Loglinear: recall}}}{64}{figure.caption.120}}
\@writefile{lof}{\contentsline {subfigure}{\numberline{(j)}{\ignorespaces {Logpolynomial: accuracy}}}{64}{figure.caption.120}}
\@writefile{lof}{\contentsline {subfigure}{\numberline{(k)}{\ignorespaces {Logpolynomial: precision}}}{64}{figure.caption.120}}
\@writefile{lof}{\contentsline {subfigure}{\numberline{(l)}{\ignorespaces {Logpolynomial: recall}}}{64}{figure.caption.120}}
\@writefile{lot}{\contentsline {table}{\numberline {A.4}{\ignorespaces Estimation error of the dependency score for different algorithms w.r.t. increasing subspace dimensionality for linear, loglinear, polynomial and logpolynomial dependencies. All values given in \%. \texttt  {+} and \texttt  {-} indicate overestimation and underestimation respectively\relax }}{65}{table.caption.105}}
\newlabel{table:ds_sub}{{A.4}{65}{Estimation error of the dependency score for different algorithms w.r.t. increasing subspace dimensionality for linear, loglinear, polynomial and logpolynomial dependencies. All values given in \%. \texttt {+} and \texttt {-} indicate overestimation and underestimation respectively\relax }{table.caption.105}{}}
\newlabel{table:ds_sub@cref}{{[table][4][2147483647,1]A.4}{[1][61][]65}}
\@setckpt{backmatter/appendix}{
\setcounter{page}{66}
\setcounter{equation}{0}
\setcounter{enumi}{0}
\setcounter{enumii}{0}
\setcounter{enumiii}{0}
\setcounter{enumiv}{0}
\setcounter{footnote}{0}
\setcounter{mpfootnote}{0}
\setcounter{part}{0}
\setcounter{chapter}{1}
\setcounter{section}{2}
\setcounter{subsection}{0}
\setcounter{subsubsection}{0}
\setcounter{paragraph}{0}
\setcounter{subparagraph}{0}
\setcounter{figure}{2}
\setcounter{table}{4}
\setcounter{parentequation}{0}
\setcounter{example}{0}
\setcounter{theorem}{0}
\setcounter{ContinuedFloat}{0}
\setcounter{subfigure}{0}
\setcounter{lofdepth}{1}
\setcounter{subtable}{0}
\setcounter{lotdepth}{1}
\setcounter{r@tfl@t}{0}
\setcounter{lstnumber}{1}
\setcounter{Item}{0}
\setcounter{Hfootnote}{3}
\setcounter{bookmark@seq@number}{32}
\setcounter{dummy}{4}
\setcounter{LT@tables}{0}
\setcounter{LT@chunks}{0}
\setcounter{float@type}{8}
\setcounter{AlgoLine}{20}
\setcounter{algocfline}{4}
\setcounter{algocfproc}{4}
\setcounter{algocf}{4}
\setcounter{NAT@ctr}{0}
\setcounter{vec@elem}{0}
\setcounter{ALC@unique}{0}
\setcounter{ALC@line}{0}
\setcounter{ALC@rem}{0}
\setcounter{ALC@depth}{0}
\setcounter{taken}{0}
\setcounter{tkz@gr@a}{0}
\setcounter{tkz@gr@b}{0}
\setcounter{tkz@gr@c}{0}
\setcounter{tkz@gr@e}{0}
\setcounter{tkz@gr@d}{0}
\setcounter{tkz@gr@p}{0}
\setcounter{tkz@gr@i}{0}
\setcounter{tkz@gr@n}{0}
\setcounter{tkz@gr@ta}{0}
\setcounter{tkz@gr@tb}{0}
\setcounter{PSforPDF}{0}
\setcounter{prblm}{0}
\setcounter{thm}{0}
\setcounter{lstlisting}{0}
\setcounter{section@level}{1}
}
