d: 4
outliers: 0

true: [(3, (0, 1, 2))]

[(0,), (1,), (3,), (2, 3)]
[(1,), (3,), (2, 3), (0, 1)]
[(1,), (2,), (3,), (0, (3, 2, 1))]
[(0,), (1,), (2,), (3, (2, 0))]
[(0,), (1,), (2,), (3, 2)]


d = 10, outliers = 1

true: [(3, (0, 1, 2)), (7, (4, 5, 6)), (8,), (9,)]

[(0,), (1,), (2,), (5,), (6,), (8,), (9,), (3, 2), (7, 5), (4, (6, 7))]
[(0,), (1,), (3,), (4,), (5,), (7,), (8,), (9,), (2, 3), (6, (5, 7, 4))]
[(0,), (1,), (3,), (5,), (7,), (8,), (9,), (6, 7), (4, 5), (2, 3)]
[(0,), (1,), (2,), (4,), (7,), (8,), (9,), (6, 7), (3, (2, 1, 0)), (5, (4, 6))]
[(0,), (1,), (2,), (4,), (5,), (7,), (8,), (9,), (6, (4, 7, 5)), (3, (2, 1))]


d = 20, out = 4

true: [(3, (0, 1, 2)), (7, (4, 5, 6)), (11, (8, 9, 10)), (15, (12, 13, 14)), (16,), (17,), (18,), (19,)]

[(0,), (1,), (2,), (4,), (5,), (7,), (8,), (10,), (12,), (13,), (15,), (16,), (17,), (18,), (19,), (6, 7), (14, 15), (11, 10), (3, (2, 1)), (9, (8, 11))]

[(0,), (3,), (5,), (6,), (8,), (9,), (11,), (12,), (13,), (14,), (16,), (17,), (18,), (19,), (7, 6), (2, 3), (15, 14), (10, (11, 8)), (1, (0, 2)), (4, (5, 7))]

[(1,), (2,), (3,), (4,), (5,), (7,), (8,), (9,), (11,), (12,), (15,), (16,), (17,), (18,), (19,), (6, (7, 5)), (10, (11, 8)), (0, (3, 2, 1)), (13, 12), (14, (15, 13))]

[(0,), (3,), (4,), (6,), (8,), (9,), (11,), (13,), (14,), (16,), (17,), (18,), (19,), (2, 3), (7, 6), (1, 0), (10, (8, 11, 9)), (12, 13), (15, (14, 13)), (5, 4)]

[(0,), (1,), (2,), (5,), (6,), (8,), (9,), (10,), (12,), (13,), (15,), (16,), (17,), (18,), (19,), (4, (5, 6)), (11, (8, 10, 9)), (3, (2, 0)), (7, (6, 5)), (14, (15, 12))] 


d = 30, out = 6

true: [(3, (0, 1, 2)), (7, (4, 5, 6)), (11, (8, 9, 10)), (15, (12, 13, 14)), (19, (16, 17, 18)), (23, (20, 21, 22)), (24,), (25,), (26,), (27,), (28,), (29,)]

[(0,), (1,), (3,), (4,), (5,), (6,), (8,), (9,), (10,), (12,), (13,), (14,), (17,), (19,), (20,), (23,), (24,), (25,), (26,), (27,), (28,), (29,), (18, 19), (7, 6), (11, (9, 10, 8)), (21, 20), (2, (0, 3, 1)), (22, (23, 20)), (15, (14, 13)), (16, (17, 18))]

[(1,), (2,), (4,), (5,), (7,), (8,), (9,), (11,), (12,), (13,), (15,), (17,), (18,), (21,), (22,), (23,), (24,), (25,), (26,), (27,), (28,), (29,), (16, 17), (19, 18), (6, 7), (20, (22, 21)), (0, 1), (3, (2, 0)), (10, (11, 9)), (14, (15, 12))]

[(0,), (1,), (3,), (4,), (6,), (7,), (8,), (10,), (13,), (15,), (17,), (19,), (20,), (23,), (24,), (25,), (26,), (27,), (28,), (29,), (5, (7, 4)), (14, (15, 13)), (18, 19), (11, 10), (12, (13, 15)), (2, (3, 0)), (22, 21), (21, (20, 23)), (16, 17), (9, 8)]

[(0,), (1,), (2,), (4,), (5,), (6,), (8,), (9,), (12,), (13,), (15,), (16,), (17,), (19,), (22,), (23,), (24,), (25,), (26,), (27,), (28,), (29,), (11, 9), (14, 15), (21, 23), (10, (8, 11)), (3, (2, 0)), (20, 22), (18, (19, 17)), (7, (6, 4))]

[(0,), (1,), (2,), (4,), (6,), (8,), (11,), (12,), (13,), (14,), (16,), (17,), (18,), (21,), (23,), (24,), (25,), (26,), (27,), (28,), (29,), (22, 23), (10, 11), (9, (8, 10)), (3, (2, 0)), (19, (18, 17)), (15, (12, 14, 13)), (5, 7), (7, (6, 4)), (20, 21)]


d = 40, out = 8

true: [(3, (0, 1, 2)), (7, (4, 5, 6)), (11, (8, 9, 10)), (15, (12, 13, 14)), (19, (16, 17, 18)), (23, (20, 21, 22)), (27, (24, 25, 26)), (31, (28, 29, 30)), (32,), (33,), (34,), (35,), (36,), (37,), (38,), (39,)]

[(0,), (1,), (2,), (5,), (7,), (8,), (9,), (11,), (12,), (13,), (15,), (17,), (18,), (20,), (21,), (22,), (24,), (26,), (27,), (29,), (30,), (31,), (32,), (33,), (34,), (35,), (36,), (37,), (38,), (39,), (28, (30, 29)), (4, 5), (3, (2, 1)), (16, 17), (6, (7, 5)), (14, (15, 12)), (23, (22, 20)), (19, (18, 17)), (25, (24, 27, 26)), (10, (11, 8))]

[(0,), (1,), (3,), (4,), (5,), (6,), (8,), (9,), (10,), (12,), (13,), (15,), (16,), (17,), (18,), (20,), (21,), (22,), (25,), (27,), (28,), (29,), (30,), (32,), (33,), (34,), (35,), (36,), (37,), (38,), (39,), (7, 6), (14, (15, 12)), (23, 22), (26, 27), (31, 30), (2, (3, 1)), (24, 25), (11, (8, 10, 9)), (19, (17, 18, 16))]

[(0,), (1,), (2,), (4,), (5,), (7,), (9,), (10,), (11,), (12,), (13,), (15,), (16,), (17,), (18,), (20,), (21,), (23,), (24,), (25,), (27,), (29,), (31,), (32,), (33,), (34,), (35,), (36,), (37,), (38,), (39,), (6, 7), (14, 15), (8, (10, 11)), (30, 31), (19, (18, 17)), (26, (27, 25)), (3, (1, 2, 0)), (28, (29, 30)), (22, (21, 23, 20))]

[(0,), (1,), (3,), (4,), (5,), (6,), (8,), (9,), (11,), (12,), (13,), (14,), (17,), (19,), (20,), (21,), (23,), (25,), (27,), (28,), (30,), (32,), (33,), (34,), (35,), (36,), (37,), (38,), (39,), (15, (14, 13)), (10, 11), (18, 19), (29, 28), (22, (23, 21)), (31, (30, 29)), (24, 25), (26, (27, 25)), (7, (5, 6)), (2, (3, 1)), (16, 17)]

[(0,), (2,), (3,), (4,), (5,), (7,), (8,), (9,), (11,), (12,), (13,), (15,), (16,), (17,), (18,), (20,), (21,), (23,), (24,), (25,), (26,), (28,), (29,), (31,), (32,), (33,), (34,), (35,), (36,), (37,), (38,), (39,), (30, 31), (1, 3), (6, 7), (22, (23, 21)), (10, (9, 11, 8)), (14, (12, 15, 13)), (19, (16, 18, 17)), (27, (24, 26, 25))]


d = 50, out = 10

true: [(3, (0, 1, 2)), (7, (4, 5, 6)), (11, (8, 9, 10)), (15, (12, 13, 14)), (19, (16, 17, 18)), (23, (20, 21, 22)), (27, (24, 25, 26)), (31, (28, 29, 30)), (35, (32, 33, 34)), (39, (36, 37, 38)), (40,), (41,), (42,), (43,), (44,), (45,), (46,), (47,), (48,), (49,)]

[(0,), (1,), (3,), (4,), (5,), (7,), (8,), (9,), (10,), (12,), (13,), (14,), (16,), (17,), (19,), (20,), (21,), (22,), (24,), (25,), (27,), (28,), (29,), (31,), (32,), (34,), (35,), (36,), (37,), (38,), (40,), (41,), (42,), (43,), (44,), (45,), (46,), (47,), (48,), (49,), (39, (38, 36)), (6, (7, 5)), (11, 10), (26, 27), (2, (3, 0)), (18, (19, 16)), (23, (20, 22, 21)), (30, (31, 29)), (15, (12, 14, 13)), (33, (35, 34))]

[(2,), (3,), (4,), (5,), (6,), (8,), (9,), (10,), (12,), (13,), (15,), (16,), (17,), (18,), (21,), (22,), (24,), (25,), (27,), (28,), (30,), (33,), (35,), (36,), (38,), (40,), (41,), (42,), (43,), (44,), (45,), (46,), (47,), (48,), (49,), (1, 3), (0, (2, 3)), (11, (10, 9)), (31, 30), (26, 27), (19, 18), (23, 22), (20, 21), (32, 33), (34, (35, 32)), (37, (36, 38)), (39, (38, 36)), (29, 28), (7, (4, 6, 5)), (14, (15, 13))]

[(0,), (1,), (2,), (4,), (5,), (7,), (9,), (10,), (11,), (12,), (13,), (14,), (16,), (17,), (18,), (21,), (22,), (23,), (24,), (26,), (29,), (31,), (32,), (35,), (36,), (37,), (38,), (40,), (41,), (42,), (43,), (44,), (45,), (46,), (47,), (48,), (49,), (30, 31), (20, 22), (15, (13, 14)), (34, 35), (27, 26), (19, (18, 17)), (8, 11), (39, (38, 37)), (6, (7, 4)), (28, 29), (33, 32), (3, (0, 2, 1)), (25, (24, 26))]

[(0,), (1,), (2,), (4,), (5,), (6,), (9,), (11,), (12,), (15,), (16,), (18,), (19,), (21,), (23,), (25,), (26,), (28,), (30,), (33,), (34,), (35,), (36,), (37,), (39,), (40,), (41,), (42,), (43,), (44,), (45,), (46,), (47,), (48,), (49,), (29, 28), (14, 15), (3, (2, 1)), (38, 39), (7, (6, 5)), (22, (23, 21)), (13, 12), (24, 25), (8, 9), (27, (26, 25)), (10, (11, 9)), (31, (30, 29)), (20, (21, 23)), (32, (35, 34, 33)), (17, (19, 18, 16))]

[(0,), (1,), (3,), (4,), (6,), (7,), (8,), (9,), (10,), (14,), (15,), (16,), (17,), (18,), (20,), (21,), (22,), (24,), (25,), (27,), (28,), (29,), (30,), (32,), (33,), (35,), (36,), (37,), (39,), (40,), (41,), (42,), (43,), (44,), (45,), (46,), (47,), (48,), (49,), (5, 6), (13, 15), (38, 39), (34, 35), (26, (27, 24, 25)), (12, 14), (11, (10, 8)), (19, (18, 17)), (31, (29, 30, 28)), (23, (22, 21)), (2, (3, 1))]
