
nr dims: 10
nr outliers: 2
i 1: true ce: 3.50597258257e+92, mce: 3.47103113714e+92, uds: 3.47103113714e+92
nr dims: 20
nr outliers: 4
i 1: true ce: 2240.83299729, mce: 2066.62453022, uds: 4532.3684039
nr dims: 30
nr outliers: 6
i 1: true ce: 2.48543961462e+40, mce: 2.48911644689e+40, uds: 2.48911644689e+40