[(2, (0, 1)), (5, (3, 4)), (8, (6, 7)), (11, (9, 10)), (14, (12, 13)), (17, (15, 16)), (20, (18, 19)), (23, (21, 22)), (24,), (25,), (26,), (27,), (28,), (29,)]

0.2191370143
1382.59845309 

0.2210885168
1366.39425746

0.1343293936
1177.52799277

0.1836510341
1139.19980431

0.2769954073
1167.96884478

0.1552256242
1139.67274641

0.1717173708
966.889494984

0.2096900495
1087.36837956

0.1416069695
1094.90666251

0.1527538682
920.287329097