acc mce: [0.9247817319669587, 0.920832079752493, 0.9185224251214098, 0.9185224251214098, 0.9185224251214098, 0.9170485022189154, 0.9170485022189154, 0.9170485022189154, 0.9170485022189154, 0.9170485022189154]

pr. mce: [0.4901587301587301, 0.47150375939849615, 0.4585714285714285, 0.4585714285714285, 0.4585714285714285, 0.4471428571428572, 0.4471428571428572, 0.4471428571428572, 0.4471428571428572, 0.4471428571428572]

r. mce: [0.507142857142857, 0.4857142857142856, 0.47142857142857136, 0.47142857142857136, 0.47142857142857136, 0.46428571428571425, 0.46428571428571425, 0.46428571428571425, 0.46428571428571425, 0.46428571428571425]


acc uds: [0.0625, 0.0625, 0.0625, 0.0625, 0.0625, 0.0625, 0.0625, 0.0625, 0.0625, 0.0625]

pr. uds: [0.0631578947368421, 0.0631578947368421, 0.0631578947368421, 0.0631578947368421, 0.0631578947368421, 0.0631578947368421, 0.0631578947368421, 0.0631578947368421, 0.0631578947368421, 0.0631578947368421]

r. uds: [0.857142857142857, 0.857142857142857, 0.857142857142857, 0.857142857142857, 0.857142857142857, 0.857142857142857, 0.857142857142857, 0.857142857142857, 0.857142857142857, 0.857142857142857]


acc uds x jd: [0.8911458333333334, 0.8890625, 0.8890625, 0.8895833333333334, 0.8901041666666666, 0.8890625, 0.8880208333333334, 0.8880208333333334, 0.8880208333333334, 0.8880208333333334]

pr. uds x jd: [0.32239690134426974, 0.31258828890407836, 0.31258828890407836, 0.31453634085213034, 0.31667919799498745, 0.31167919799498744, 0.30667919799498744, 0.30667919799498744, 0.30667919799498744, 0.30667919799498744]

r. uds x jd: [0.46428571428571425, 0.45, 0.45, 0.45, 0.45, 0.4428571428571428, 0.43571428571428567, 0.43571428571428567, 0.43571428571428567, 0.43571428571428567]
