size 2

1
precision:  0.5  recall:  0.667
acc mce:  0.9602649006622517

precision:  0.028  recall:  0.667
acc uds:  0.027210884353741496 

precision:  0.069  recall:  0.111
acc uds jd:  0.9024943310657596 

precision:  0.207  recall:  0.333
acc uds jd:  0.9206349206349206 


2
precision:  0.714  recall:  0.833
acc mce:  0.9798657718120806

precision:  0.028  recall:  0.667
acc uds:  0.027210884353741496 

precision:  0.034  recall:  0.056
acc uds jd:  0.8979591836734694 

precision:  0.276  recall:  0.444
acc uds jd:  0.9297052154195011


3
precision:  0.385  recall:  0.556
acc mce:  0.9474835886214442

precision:  0.028  recall:  0.667
acc uds:  0.027210884353741496 

precision:  0.0  recall:  0.0
acc uds jd:  0.8934240362811792 

precision:  0.138  recall:  0.222
acc uds jd:  0.9115646258503401


4
precision:  0.714  recall:  0.833
acc mce:  0.9798657718120806

precision:  0.028  recall:  0.667
acc uds:  0.027210884353741496 

precision:  0.0  recall:  0.0
acc uds jd:  0.8934240362811792 

precision:  0.31  recall:  0.5
acc uds jd:  0.9342403628117913 


5
precision:  0.565  recall:  0.722
acc mce:  0.9667405764966741

precision:  0.028  recall:  0.667
acc uds:  0.027210884353741496 





