mce: 0.5188672786
uds: 0.0
uds++: 0.1171083377
mce: 0.477477818
uds: 0.0007982391
uds++: 0.1459571581
mce: 0.4212355736
uds: 0.0
uds++: 0.0915281349
mce: 0.3749407886
uds: 0.0
uds++: 0.1629272058
mce: 0.3076033682
uds: 0.0
uds++: 0.1365654382
mce: 0.134828007
uds: 0.0
uds++: 0.1110074175
mce: 0.4355486084
uds: 0.0
uds++: 0.0855087041
mce: 0.251971028
uds: 0.0
uds++: 0.1464379397
mce: 0.2733863069
uds: 0.001653182
uds++: 0.1037898371
mce: 0.3359185035
uds: 0.0
uds++: 0.1161128626
