
nr dims: 10
nr outliers: 2
i 1: true score: 0.085850287681, mce: 0.902336456961, uds: 0.0
nr dims: 20
nr outliers: 4
i 1: true score: 0.121616268352, mce: 0.237917255749, uds: 2.64313872104e-61
nr dims: 30
nr outliers: 6
i 1: true score: 0.719841987616, mce: 0.868021872805, uds: 4.9911337414e-05