nr dims: 3
nr outliers: 0
av. pr. of the network at random, mce: 0.422222222222
av. pr. of the network or a better one at random, mce: 0.374603174603
av. pr. of the network at random, uds: 0.2
av. pr. of the network or a better one at random, uds: 0.0380952380952

