pol dependency, subspace size = 4

d: 4

true score:  0.4159856859
mce:  0.634057562
true ce:  3005586.97824
mce:  5148489.01739

true score:  0.3465230427
mce:  0.5086258827
true ce:  1870778.16506
mce:  2868329.1319

true score:  0.6002802632
mce:  0.8284427187
true ce:  160051.02802
mce:  68710.7179356

true score:  0.0160054509
mce:  0.684443296
true ce:  1326.09477583
mce:  1344.12217126

true score:  0.701658487
mce:  0.6424970519
true ce:  2113951.15687
mce:  7086259.92629

true score:  0.6565537201
mce:  0.6759000896
true ce:  1962100.29615
mce:  5718250.5329

true score:  0.0686560955
mce:  0.6759258987
true ce:  97375.6122249
mce:  104626.671561

true score:  0.1431485445
mce:  0.6883321855
true ce:  1247497.35614
mce:  1459428.60549

true score:  0.0024687017
mce:  0.6868893871
true ce:  37372.2769173
mce:  37485.3609393

true score:  0.4646906111
mce:  0.6391939181
true ce:  6250381.5793
mce:  11699817.7389


d:10

true score:  0.5935252069
mce:  0.7227497489
true ce:  5324252.37315
mce:  13119772.1721

true score:  0.4185264209
mce:  0.5726125759
true ce:  4165311.84437
mce:  7174877.2516

true score:  0.6275069791
mce:  0.5379843309
true ce:  564499.838159
mce:  1516406.72965

true score:  0.1778910277
mce:  0.5992119203
true ce:  1974286.79223
mce:  2406876.90417

true score:  0.7321137291
mce:  0.7664940819
true ce:  437616.914345
mce:  381548.333752

true score:  0.3552760171
mce:  0.6154315086
true ce:  1077703.15485
mce:  656379.669015

true score:  0.5560146895
mce:  0.5483517879
true ce:  1938972.21375
mce:  4375110.39958

true score:  0.3485638068
mce:  0.5653813726
true ce:  2905419.28646
mce:  4458291.84044

true score:  0.4366420941
mce:  0.6591307308
true ce:  9178916.87977
mce:  16357235.6077

true score:  0.3396527439
mce:  0.6103762408
true ce:  1190664.15357
mce:  1734962.62342


d:20 

true score:  0.3992866848
mce:  0.6789390912
true ce:  5777212.69391
mce:  5626719.9456

true score:  0.4162336776
mce:  0.6875344583
true ce:  5548981.92202
mce:  7665658.12896

true score:  0.4552368862
mce:  0.6177689283
true ce:  3918470.46279
mce:  6250001.82338

true score:  0.5836536258
mce:  0.7030805051
true ce:  5909047.61778
mce:  13211554.8065

true score:  0.4492830353
mce:  0.7489563132
true ce:  3301448.28071
mce:  4338474.27762

true score:  0.5722279929
mce:  0.6422235199
true ce:  5842768.06947
mce:  13664051.0868

true score:  0.4131064154
mce:  0.6949590641
true ce:  13124104.7968
mce:  16124059.0731

true score:  0.4884558984
mce:  0.5044325822
true ce:  5999756.47563
mce:  10785407.7391

true score:  0.599969052
mce:  0.720836061
true ce:  4292749.69013
mce:  4239534.89422

true score:  0.6353172434
mce:  0.6288561993
true ce:  3819097.7035
mce:  7369193.45965


d:30 

true score:  0.6208079975
mce:  0.7071520503
true ce:  5626398.84682
mce:  12262769.6899

true score:  0.5403403199
mce:  0.7056206603
true ce:  11294944.29
mce:  16830671.0039

true score:  0.5836440849
mce:  0.582303169
true ce:  8476146.14135
mce:  17343937.9231

true score:  0.5551716511
mce:  0.744124532
true ce:  10986251.9198
mce:  23823791.8125

true score:  0.5680918633
mce:  0.7774785957
true ce:  6503719.14003
mce:  7324171.34734

true score:  0.4387813044
mce:  0.7283085189
true ce:  10507074.4746
mce:  10445873.2013

true score:  0.3249989379
mce:  0.6853724253
true ce:  4562341.04323
mce:  5601301.18906

true score:  0.4710594762
mce:  0.7829051384
true ce:  6164239.65535
mce:  8729874.57113

true score:  0.5800873378
mce:  0.6981385273
true ce:  9652003.23248
mce:  10327380.626

true score:  0.5599367178
mce:  0.7523771179
true ce:  9031913.42702
mce:  19359962.119


d:40

true score:  0.4736979641
mce:  0.6798668885
true ce:  11895795.4889
mce:  19633137.7907

true score:  0.5531148686
mce:  0.7169595394
true ce:  13049680.3899
mce:  25566015.6142

true score:  0.5517807943
mce:  0.6711853763
true ce:  12958951.9758
mce:  9515004.94698

true score:  0.5246377221
mce:  0.7573952887
true ce:  7058621.81846
mce:  14431537.3731

true score:  0.7641606146
mce:  0.6719121098
true ce:  7089568.49554
mce:  29775120.7555

true score:  0.68677144
mce:  0.7777202721
true ce:  16844684.9106
mce:  40742027.7725

true score:  0.5665789042
mce:  0.678939672
true ce:  11230666.6224
mce:  17821177.6932

true score:  0.5814182632
mce:  0.8223627922
true ce:  10075582.0004
mce:  17948072.6167

true score:  0.643526344
mce:  0.7173989906
true ce:  5588569.64765
mce:  13744376.6174

mce:  0.7646506231
true ce:  8043871.86617
mce:  14393118.9124


d: 50

true score:  0.6819530841
mce:  0.6838088969
true ce:  6145123.78877
mce:  17410972.4405

true score:  0.5378764829
mce:  0.7151937266
true ce:  11621945.1818
mce:  20930499.5293

true score:  0.5755662131
mce:  0.7931551294
true ce:  7065307.40651
mce:  13030557.7342

true score:  0.4459210197
mce:  0.634702955
true ce:  16318547.9737
mce:  19560008.6057

true score:  0.6888165294
mce:  0.6397893662
true ce:  6558729.80851
mce:  19515661.4139

true score:  0.6996995714
mce:  0.735588951
true ce:  15919502.6406
mce:  25523902.2107

true score:  0.5874629829
mce:  0.5827457304
true ce:  14401170.1057
mce:  22445900.6555

true score:  0.6932497673
mce:  0.74185502
true ce:  14925243.9653
mce:  41519377.9143

true score:  0.5874474614
mce:  0.6818291856
true ce:  6243448.56754
mce:  7922327.19454

true score:  0.5077838046
mce:  0.7152710532
true ce:  20848061.8166
mce:  21149584.0726




no max

true score:  0.650749994
mce:  0.4131401976
true ce:  739004.845829
mce:  1243120.72397

true score:  0.6344722718
mce:  0.8373156263
true ce:  245403.829267
mce:  109212.339317

true score:  0.4712651304
mce:  0.5858862176
true ce:  3895254.38814
mce:  7370444.08519

true score:  0.1143963472
mce:  0.6072885783
true ce:  2839537.98681
mce:  3211663.7966

true score:  0.6426533348
mce:  0.6449372291
true ce:  985577.61704
mce:  980121.141344

true score:  0.7362161063
mce:  0.7670502878
true ce:  1175854.05137
mce:  1042603.14751

true score:  0.5907880085
mce:  0.8445196207
true ce:  56734.4909067
mce:  21566.085946

true score:  0.5476072034
mce:  0.5954977556
true ce:  24570.1547338
mce:  54261.8297471

true score:  0.0878238822
mce:  0.2502337169
true ce:  24464.9082275
mce:  20120.8305599

true score:  0.6081999167
mce:  0.2350973098
true ce:  364490.522671
mce:  712075.155281

d:10

true score:  0.5967107139
mce:  0.2671262675
true ce:  1185487.42366
mce:  2157360.74167

true score:  0.3852449014
mce:  0.6832933332
true ce:  2099924.97006
mce:  2760308.26639

true score:  0.7719778194
mce:  0.7988371688
true ce:  1535244.2687
mce:  1354546.22708

true score:  0.6447895493
mce:  0.3072842323
true ce:  2796171.91566
mce:  5458875.26816

true score:  0.5607594478
mce:  0.5581383172
true ce:  1100673.06935
mce:  1116696.4375

true score:  0.3297082564
mce:  0.6303060138
true ce:  5517087.69729
mce:  8239560.77314

true score:  0.5240453064
mce:  0.7657337419
true ce:  694757.858646
mce:  342165.374229

true score:  0.589745717
mce:  0.79949693
true ce:  1426501.27886
mce:  3418948.04086

true score:  0.4863649915
mce:  0.4656177936
true ce:  2822708.51555
mce:  2937502.28119

true score:  0.2575580991
mce:  0.6603838664
true ce:  4130811.98346
mce:  1890802.75098


d:20

true score:  0.300214568
mce:  0.6644896521
true ce:  8462914.16865
mce:  10922501.9667

true score:  0.6956146173
mce:  0.8166219345
true ce:  5594001.09839
mce:  6511305.04251

true score:  0.5061147727
mce:  0.6386125303
true ce:  6418024.41915
mce:  11461685.318

true score:  0.4833766841
mce:  0.6906566122
true ce:  3157253.37203
mce:  4401561.9345

true score:  0.5284095342
mce:  0.6707930549
true ce:  8384871.44239
mce:  15624323.3205

true score:  0.6616686006
mce:  0.6830291902
true ce:  7437192.56288
mce:  6969566.67311

true score:  0.4195110516
mce:  0.7166455652
true ce:  5083317.54005
mce:  6275624.93055

true score:  0.5119214473
mce:  0.5834979923
true ce:  5341216.31319
mce:  5093400.4497

true score:  0.3096493183
mce:  0.6798357635
true ce:  7463639.80564
mce:  6399969.66139

true score:  0.3474117519
mce:  0.6893960187
true ce:  5946606.59641
mce:  8710989.73579


d:30

true score:  0.4941226021
mce:  0.5631230593
true ce:  8486887.08394
mce:  7777714.14903

true score:  0.5441515126
mce:  0.7790658197
true ce:  9487295.21667
mce:  13242442.9958

true score:  0.6831875964
mce:  0.6741454973
true ce:  5587903.42975
mce:  16333434.6095

true score:  0.3498854959
mce:  0.5840235289
true ce:  7749147.73426
mce:  4960733.3898

true score:  0.3347618491
mce:  0.6332674512
true ce:  6792342.98774
mce:  8036361.56797

true score:  0.3347618491
mce:  0.6332674512
true ce:  6792342.98774
mce:  8036361.56797

true score:  0.5212666994
mce:  0.685442988
true ce:  4228819.52129
mce:  6669756.93585

true score:  0.6766156709
mce:  0.4617334087
true ce:  7088581.24522
mce:  17823694.7172

true score:  0.6412783724
mce:  0.5313086115
true ce:  7829736.75702
mce:  10715707.9425

true score:  0.6032012932
mce:  0.4963050169
true ce:  5405768.25651
mce:  6964567.69678


d:40

true score:  0.6315152531
mce:  0.6197595685
true ce:  15112215.9046
mce:  22776235.0051

true score:  0.6441178218
mce:  0.6864166842
true ce:  7483134.26626
mce:  10403888.3516

true score:  0.5868506537
mce:  0.6873343606
true ce:  7801654.74533
mce:     12664310.4672

true score:  0.7108000817
mce:  0.6499523241
true ce:  10658678.0443
mce:  15341842.1783

true score:  0.4790143973
mce:  0.4411283836
true ce:  7236850.92308
mce:  11768078.2455

true score:  0.6244876872
mce:  0.7163809044
true ce:  4297493.51165
mce:  4573747.42892

true score:  0.4858413587
mce:  0.6349657629
true ce:  6464815.08203
mce:  4603171.11226

true score:  0.5712594324
mce:  0.4855449413
true ce:  11100340.0023
mce:  18471969.6738

true score:  0.5655828245
mce:  0.5517878362
true ce:  6104531.61461
mce:  9729905.57222

true score:  0.4937633995
mce:  0.5064066435
true ce:  11560527.1417
mce:  16120601.8151


d: 50

true score:  0.5288763808
mce:  0.5945931757
true ce:  11645379.3386
mce:  16023644.0907

true score:  0.5951966478
mce:  0.6834820105
true ce:  21438691.0891
mce:  39246803.4926

true score:  0.4879818424
mce:  0.4222069037
true ce:  11654441.8364
mce:  13270024.9525

true score:  0.6489131544
mce:  0.5813109312
true ce:  13826536.4209
mce:  18286774.1816

true score:  0.4018610914
mce:  0.596651713
true ce:  9859983.20859
mce:  8334591.45294

true score:  0.5860752835
mce:  0.6711934009
true ce:  5355075.97315
mce:  5675728.23901

true score:  0.5278335525
mce:  0.6601899758
true ce:  5592834.74914
mce:  8303122.35697

true score:  0.584736459
mce:  0.6824815499
true ce:  11209729.5619
mce:  18056954.3657

true score:  0.607746189
mce:  0.6374722811
true ce:  15263837.2011
mce:  17263725.236

true score:  0.4779041905
mce:  0.5817039741
true ce:  8341030.42607
mce:  12539328.7139





