\relax 
\providecommand\hyper@newdestlabel[2]{}
\providecommand\HyperFirstAtBeginDocument{\AtBeginDocument}
\HyperFirstAtBeginDocument{\ifx\hyper@anchor\@undefined
\global\let\oldcontentsline\contentsline
\gdef\contentsline#1#2#3#4{\oldcontentsline{#1}{#2}{#3}}
\global\let\oldnewlabel\newlabel
\gdef\newlabel#1#2{\newlabelxx{#1}#2}
\gdef\newlabelxx#1#2#3#4#5#6{\oldnewlabel{#1}{{#2}{#3}}}
\AtEndDocument{\ifx\hyper@anchor\@undefined
\let\contentsline\oldcontentsline
\let\newlabel\oldnewlabel
\fi}
\fi}
\global\let\hyper@last\relax 
\gdef\HyperFirstAtBeginDocument#1{#1}
\providecommand*\HyPL@Entry[1]{}
\bibstyle{alpha}
\bibdata{Bibliography}
\bibcite{Anh:2010:ICU:1712666.1712668}{{AM10}{}{{}}{{}}}
\bibcite{Blandford:2002:ICT:882455.875020}{{BB02}{}{{}}{{}}}
\bibcite{Cappello:2000:MVM:370049.370071}{{CE00}{}{{}}{{}}}
\bibcite{DeHaan:2007:OTJ:1247480.1247567}{{DT07}{}{{}}{{}}}
\bibcite{DBLP:journals/pvldb/HuangAR11}{{HAR11}{}{{}}{{}}}
\bibcite{Neumann:2008:RRE:1453856.1453927}{{NW08}{}{{}}{{}}}
\bibcite{Prudhommeaux08}{{PS08}{}{{}}{{}}}
\bibcite{Wilkinson06jenaproperty}{{WW06}{}{{}}{{}}}
\bibcite{Zhang:2008:PCI:1367497.1367550}{{ZLS08}{}{{}}{{}}}
\providecommand\NAT@force@numbers{}\NAT@force@numbers
\HyPL@Entry{0<</S/D>>}
