13,15;0.45621330210945915
5,7,13,15;0.4206946391193081
7,13,15;0.4205190896801973
5,13,15;0.3918336048198984
5,7,13;0.3889738876825653
7,13;0.36063737888290914
5,7;0.3533723698880012
5,7,15;0.34926316522295203
7,15;0.3400888489909272
10,14;0.32661620822887966
5,13;0.3165501804605167
7,9;0.2716559684734599
3,11;0.2652773649192133
5,11;0.22635958907129655
5,15;0.1961828929610109

