dimensions: [5, 10, 20, 30, 40, 50]

acc mce: [0.5228438228438228, 0.8178415047795251, 0.914790126122236, 0.9458586628048135, 0.9572857302919704, 0.9683920270882054]
pr. mce: [0.31666666666666665, 0.45555555555555555, 0.48583333333333334, 0.5206666666666667, 0.48841354723707664, 0.5353814884302689]
r. mce:  [0.3, 0.45, 0.475, 0.504, 0.48484848484848486, 0.5142857142857142]

acc uds: [0.4, 0.17777777777777778, 0.08421052631578947, 0.045454545454545456, 0.035668789808917196, 0.025910931174089068]
pr. uds: [0.4, 0.17777777777777778, 0.08421052631578947, 0.04597701149425287, 0.035897435897435895, 0.026122448979591838]
r. uds:  [1.0, 1.0, 1.0, 0.8, 0.8484848484848484, 0.7619047619047619]

acc uds jd: [0.6, 0.7022222222222222, 0.8431578947368422, 0.8672727272727272, 0.8978343949044586, 0.9169230769230768]
pr. uds jd: [0.5031746031746032, 0.2311111111111111, 0.17582846003898633, 0.04676117921105892, 0.055142610198789965, 0.05050481985546921]
r. uds jd:  [0.7, 0.3, 0.2125, 0.064, 0.07878787878787878, 0.07142857142857142]

acc uds x jd: [0.8800000000000001, 0.7911111111111111, 0.9042105263157895, 0.9186363636363637, 0.93656050955414, 0.9507692307692308]
pr. uds x jd: [0.7866666666666665, 0.4541666666666666, 0.45552608311229, 0.34493022434198906, 0.33818175730281674, 0.3540357411806617]
r. uds x jd:  [1.0, 0.7, 0.7375, 0.48, 0.5272727272727272, 0.5428571428571429]
