
nr dims: 4
nr outliers: 0
i: 1true ce: 127.695601872, mce: 99.7005402177, uds: 94.6062399869
uds_jd: 96.8318353891, uds_x_jd: 96.9742553944
true score: 0.0294457101, mce: 0.6206602064, uds: 0.0128371185
uds_jd: 0.3968286023, uds_x_jd: 0.395030716

nr dims: 4
nr outliers: 0
i: 2true ce: 67.0366060801, mce: 69.2535425196, uds: 70.1780673801
uds_jd: 70.1780673801, uds_x_jd: 71.1065246039
true score: 0.2442057524, mce: 0.1651332307, uds: 0.0030455544
uds_jd: 0.0592463652, uds_x_jd: 0.0405630002

nr dims: 4
nr outliers: 0
i: 3true ce: 126.628659387, mce: 109.348268272, uds: 105.860481073
uds_jd: 109.717906271, uds_x_jd: 108.811382958
true score: 0.4552780416, mce: 0.5401203087, uds: 0.0151829533
uds_jd: 0.3557781205, uds_x_jd: 0.3666108467
