d: 4
outliers: 0

true: [(3, (0, 1, 2))]

[(0,), (2,), (3, 0), (1, 2)]
[(0,), (1,), (2,), (3, (0, 2, 1))]
[(0,), (1,), (2,), (3, 1)]
[(0,), (1,), (2,), (3, 2)]
[(0,), (1,), (2,), (3, (2, 1, 0))]


d = 10, outliers = 2

true: [(3, (0, 1, 2)), (7, (4, 5, 6)), (8,), (9,)]

[(0,), (1,), (2,), (4,), (6,), (7,), (8,), (9,), (5, 7), (3, 0)]
[(0,), (2,), (3,), (4,), (5,), (6,), (7,), (8,), (9,), (1, 3)]
[(0,), (1,), (2,), (5,), (6,), (7,), (8,), (9,), (4, (5, 7, 6)), (3, (2, 1, 0))]
[(0,), (1,), (2,), (4,), (5,), (6,), (8,), (9,), (7, 5), (3, 1)]
[(0,), (2,), (3,), (5,), (6,), (7,), (8,), (9,), (4, 6), (1, 3)]



d = 20, out = 4

true: [(3, (0, 1, 2)), (7, (4, 5, 6)), (11, (8, 9, 10)), (15, (12, 13, 14)), (16,), (17,), (18,), (19,)]

[(0,), (1,), (3,), (5,), (7,), (8,), (9,), (10,), (12,), (13,), (16,), (17,), (18,), (19,), (11, 8), (4, 7), (2, 3), (14, 12), (15, (14, 13, 12)), (6, 5)]

[(0,), (1,), (4,), (5,), (6,), (8,), (9,), (10,), (13,), (14,), (16,), (17,), (18,), (19,), (11, 9), (15, 14), (2, 1), (7, (4, 6)), (3, (0, 2)), (12, 13)]

[(0,), (1,), (3,), (4,), (6,), (7,), (9,), (10,), (11,), (12,), (13,), (15,), (16,), (17,), (18,), (19,), (8, 11), (14, 15), (5, 7), (2, (1, 3, 0))]

[(0,), (1,), (2,), (5,), (6,), (7,), (8,), (10,), (11,), (12,), (13,), (15,), (16,), (17,), (18,), (19,), (14, 15), (4, 7), (3, 2), (9, 10)]

[(0,), (1,), (2,), (4,), (5,), (7,), (9,), (10,), (11,), (12,), (15,), (16,), (17,), (18,), (19,), (6, (7, 5)), (14, 12), (13, 15), (3, (0, 1)), (8, (10, 9, 11))]


d = 30, out = 6

true: [(3, (0, 1, 2)), (7, (4, 5, 6)), (11, (8, 9, 10)), (15, (12, 13, 14)), (19, (16, 17, 18)), (23, (20, 21, 22)), (24,), (25,), (26,), (27,), (28,), (29,)]

[(0,), (1,), (2,), (5,), (6,), (7,), (8,), (9,), (10,), (12,), (13,), (14,), (16,), (18,), (19,), (20,), (22,), (23,), (24,), (25,), (26,), (27,), (28,), (29,), (3, 2), (4, 6), (15, (12, 13)), (17, 19), (11, 8), (21, 23)]

[(0,), (1,), (2,), (4,), (5,), (6,), (8,), (10,), (11,), (13,), (14,), (15,), (16,), (17,), (18,), (21,), (22,), (23,), (24,), (25,), (26,), (27,), (28,), (29,), (20, (23, 21)), (7, (4, 6, 5)), (9, (11, 10)), (12, 15), (19, 16), (3, (1, 2, 0))]

[(0,), (2,), (3,), (4,), (5,), (6,), (8,), (9,), (10,), (13,), (14,), (15,), (16,), (18,), (20,), (21,), (23,), (24,), (25,), (26,), (27,), (28,), (29,), (19, 16), (1, (2, 3)), (7, (5, 6)), (12, 15), (11, (10, 8, 9)), (17, (18, 19)), (22, (20, 21, 23))]

[(0,), (2,), (3,), (4,), (5,), (7,), (8,), (9,), (10,), (13,), (14,), (15,), (16,), (18,), (19,), (20,), (22,), (23,), (24,), (25,), (26,), (27,), (28,), (29,), (11, (10, 9)), (1, 2), (12, 13), (17, (19, 18)), (21, 23), (6, (4, 5, 7))]

[(1,), (2,), (3,), (4,), (6,), (7,), (8,), (9,), (10,), (11,), (12,), (13,), (14,), (16,), (18,), (19,), (20,), (21,), (22,), (24,), (25,), (26,), (27,), (28,), (29,), (17, (16, 18, 19)), (23, 20), (5, (4, 7, 6)), (15, 14), (0, (3, 1))]

d = 40, out = 8

true: [(3, (0, 1, 2)), (7, (4, 5, 6)), (11, (8, 9, 10)), (15, (12, 13, 14)), (19, (16, 17, 18)), (23, (20, 21, 22)), (27, (24, 25, 26)), (31, (28, 29, 30)), (32,), (33,), (34,), (35,), (36,), (37,), (38,), (39,)]

[(0,), (1,), (3,), (4,), (5,), (7,), (8,), (9,), (10,), (12,), (13,), (14,), (16,), (18,), (19,), (21,), (22,), (23,), (24,), (25,), (26,), (28,), (29,), (30,), (32,), (33,), (34,), (35,), (36,), (37,), (38,), (39,), (2, (3, 1)), (27, 25), (17, (19, 18)), (15, (13, 14, 12)), (20, 22), (31, 29), (6, 7), (11, (9, 10))]

[(0,), (1,), (3,), (4,), (5,), (6,), (8,), (9,), (10,), (13,), (14,), (15,), (16,), (17,), (18,), (20,), (22,), (23,), (24,), (25,), (26,), (28,), (29,), (30,), (32,), (33,), (34,), (35,), (36,), (37,), (38,), (39,), (27, (26, 24)), (7, (5, 4)), (12, 14), (31, (29, 28, 30)), (21, 23), (19, (18, 17)), (2, (0, 1)), (11, (10, 9, 8))]

[(0,), (2,), (3,), (5,), (6,), (7,), (8,), (10,), (11,), (12,), (14,), (15,), (16,), (18,), (19,), (20,), (21,), (23,), (24,), (25,), (26,), (27,), (28,), (30,), (31,), (32,), (33,), (34,), (35,), (36,), (37,), (38,), (39,), (4, 7), (17, 19), (22, 23), (9, 11), (29, (30, 31)), (1, 3), (13, (15, 14))]

[(0,), (1,), (2,), (4,), (5,), (7,), (9,), (10,), (11,), (12,), (13,), (15,), (16,), (18,), (19,), (21,), (22,), (25,), (26,), (27,), (28,), (30,), (31,), (32,), (33,), (34,), (35,), (36,), (37,), (38,), (39,), (17, 19), (3, 1), (24, 27), (14, (15, 12)), (8, 11), (6, (7, 5)), (20, 22), (23, (21, 20)), (29, (31, 28))]

[(2,), (3,), (4,), (5,), (6,), (8,), (9,), (10,), (12,), (14,), (15,), (16,), (17,), (18,), (21,), (22,), (23,), (24,), (25,), (27,), (28,), (29,), (30,), (32,), (33,), (34,), (35,), (36,), (37,), (38,), (39,), (26, (27, 25)), (31, 29), (20, 23), (7, 5), (1, 3), (0, (2, 3)), (19, 17), (13, (14, 15)), (11, (8, 9, 10))]


d = 50, out = 10

true: [(3, (0, 1, 2)), (7, (4, 5, 6)), (11, (8, 9, 10)), (15, (12, 13, 14)), (19, (16, 17, 18)), (23, (20, 21, 22)), (27, (24, 25, 26)), (31, (28, 29, 30)), (35, (32, 33, 34)), (39, (36, 37, 38)), (40,), (41,), (42,), (43,), (44,), (45,), (46,), (47,), (48,), (49,)]

[(0,), (2,), (3,), (5,), (6,), (7,), (8,), (9,), (10,), (12,), (13,), (14,), (16,), (18,), (19,), (20,), (22,), (23,), (25,), (26,), (27,), (28,), (29,), (31,), (32,), (33,), (34,), (36,), (37,), (38,), (40,), (41,), (42,), (43,), (44,), (45,), (46,), (47,), (48,), (49,), (1, 3), (21, 22), (30, 28), (17, 19), (39, 38), (15, (14, 13)), (4, (5, 7)), (24, 27), (11, (9, 8)), (35, (34, 32))]

[(0,), (2,), (4,), (5,), (7,), (8,), (10,), (11,), (12,), (13,), (15,), (16,), (17,), (18,), (20,), (23,), (24,), (26,), (27,), (28,), (30,), (31,), (32,), (34,), (35,), (36,), (38,), (39,), (40,), (41,), (42,), (43,), (44,), (45,), (46,), (47,), (48,), (49,), (37, 39), (14, 15), (29, 30), (22, 23), (33, 35), (1, 0), (9, (10, 11, 8)), (6, (7, 4)), (21, 20), (19, (17, 16)), (3, 2), (25, (24, 27, 26))]

[(0,), (1,), (2,), (4,), (5,), (6,), (8,), (10,), (11,), (12,), (13,), (15,), (16,), (17,), (19,), (20,), (21,), (23,), (24,), (25,), (27,), (29,), (30,), (32,), (33,), (35,), (37,), (38,), (40,), (41,), (42,), (43,), (44,), (45,), (46,), (47,), (48,), (49,), (31, 30), (7, 5), (22, 23), (28, 29), (9, 11), (18, 19), (36, 37), (14, 15), (26, (27, 25)), (3, (0, 2)), (34, (32, 35)), (39, 38)]

[(0,), (2,), (3,), (5,), (6,), (7,), (8,), (10,), (11,), (12,), (13,), (15,), (16,), (17,), (19,), (20,), (22,), (24,), (25,), (27,), (28,), (29,), (31,), (32,), (33,), (35,), (36,), (37,), (39,), (40,), (41,), (42,), (43,), (44,), (45,), (46,), (47,), (48,), (49,), (26, (27, 24)), (1, 3), (14, 15), (30, (31, 28)), (9, 11), (18, 16), (38, 37), (34, (33, 35, 32)), (21, 20), (23, (22, 21)), (4, 7)]

[(0,), (2,), (6,), (7,), (8,), (10,), (11,), (12,), (13,), (15,), (16,), (18,), (19,), (20,), (21,), (23,), (24,), (25,), (26,), (27,), (28,), (29,), (31,), (32,), (33,), (34,), (36,), (37,), (38,), (40,), (41,), (42,), (43,), (44,), (45,), (46,), (47,), (48,), (49,), (30, 31), (9, 11), (14, 15), (35, (34, 33)), (4, 6), (22, (23, 21)), (5, 7), (3, 0), (1, 2), (17, (18, 16, 19)), (39, (36, 37, 38))]


