[(2, (0, 1)), (5, (3, 4)), (8, (6, 7)), (11, (9, 10)), (14, (12, 13)), (17, (15, 16)), (18,), (19,)]

0
0.2857009381
665.961029288 

1
0.1981325971
848.605695528 

2
0.1036285414
861.748060612

3
0.2779365047
770.377859507

4
0.312955163
865.251780261 

5
0.2798092821
653.507817465

6
0.1950746557
687.509415065

7
0.3124388275
726.476365451 

8
0.1801585209
1002.27544861 

9
0.3354059747
725.231338992 