
nr dims: 2
nr outliers: 0
i: 1true ce: 4.56049707263e+22, mce: 4.56004116457e+22, uds: 4.56004116457e+22true score: 1.0, mce: 0.5795232224, uds: 0.0052771417

nr dims: 2
nr outliers: 0
i: 2true ce: 18.9665095712, mce: 32.9394340249, uds: 32.9394340249true score: 1.0, mce: 0, uds: 0.0

nr dims: 2
nr outliers: 0
i: 3true ce: 127.274388653, mce: 99.1533385572, uds: 140.521015245true score: 1.0, mce: 0.3555853762, uds: 0.0132597329

nr dims: 2
nr outliers: 0
i: 4true ce: 24.9264187988, mce: 39.095222088, uds: 39.095222088true score: 1.0, mce: 0.2107545596, uds: 0.0117428303

nr dims: 2
nr outliers: 0
i: 5true ce: 137.590784702, mce: 151.789517781, uds: 151.789517781true score: 1.0, mce: 0, uds: 0.0

nr dims: 2
nr outliers: 0
i: 6true ce: 12.361092647, mce: 26.1003792948, uds: 26.1003792948true score: 1.0, mce: 0, uds: 0.0

nr dims: 2
nr outliers: 0
i: 7true ce: 362.420224518, mce: 227.173452011, uds: 375.634019293true score: 1.0, mce: 0.4267105583, uds: 0.0165976003

nr dims: 2
nr outliers: 0
i: 8true ce: 20.6321292494, mce: 33.7638010342, uds: 33.7638010342true score: 1.0, mce: 0, uds: 0.0

nr dims: 2
nr outliers: 0
i: 9true ce: 382.292929772, mce: 396.061097235, uds: 396.061097235true score: 1.0, mce: 0, uds: 0.0

nr dims: 2
nr outliers: 0
i: 10true ce: 3.74778920625e+19, mce: 3.74749106863e+19, uds: 3.74749106863e+19true score: 1.0, mce: 0.2812727131, uds: 0.0078795687

nr dims: 10
nr outliers: 2
i: 1true ce: 4.65809273215e+45, mce: 4.65762703408e+45, uds: 4.65762703408e+45true score: 1.0, mce: 0.5408566952, uds: 0.0

nr dims: 10
nr outliers: 2
i: 2true ce: 1.43291398845e+20, mce: 1.43277873057e+20, uds: 1.43277873057e+20true score: 1.0, mce: 0.6351473882, uds: 0.0023795014

nr dims: 10
nr outliers: 2
i: 3true ce: 3.22273326335e+24, mce: 3.22241105583e+24, uds: 3.22241105583e+24true score: 1.0, mce: 0.3686902563, uds: 0.0
