dimensions: [4, 10, 20, 30, 40, 50]

acc mce: [0.5095238095238095, 0.8722644376899696, 0.935845162420668, 0.9595077195650135, 0.9682834692879453, 0.9758575065430103]
pr. mce: [0.4333333333333333, 0.6142857142857142, 0.6072478991596639, 0.6293478260869565, 0.6078629032258064, 0.6275978407557354]
r. mce: [0.39999999999999997, 0.6, 0.6, 0.6083333333333333, 0.6, 0.615]

acc uds: [0.5, 0.1276595744680851, 0.061855670103092786, 0.04081632653061224, 0.030456852791878174, 0.024291497975708502]
pr. uds: [0.5, 0.13333333333333333, 0.06315789473684211, 0.041379310344827586, 0.03076923076923077, 0.024489795918367346]
r. uds: [1.0, 0.75, 0.75, 0.75, 0.75, 0.75]

acc uds jd: [0.8333333333333334, 0.702127659574468, 0.8288659793814434, 0.8829931972789116, 0.9119289340101522, 0.9277732793522266]
pr. uds jd: [0.82, 0.21428571428571425, 0.107853489523181, 0.06256157635467981, 0.05505563618771166, 0.04585757008117256]
r. uds jd: [1.0, 0.25, 0.1375, 0.08333333333333333, 0.06875, 0.06]

acc uds x jd: [0.8333333333333334, 0.7787234042553192, 0.8917525773195877, 0.9242630385487528, 0.9418781725888324, 0.9530364372469636]
pr. uds x jd: [0.8333333333333334, 0.39324009324009324, 0.3901344269765322, 0.36709224040493393, 0.35147976625763433, 0.343635849735341]
r. uds x jd: [0.9333333333333333, 0.55, 0.5625, 0.5416666666666667, 0.50625, 0.4950000000000001]
