
MCE with ordered dimensions/UDS with JD

h(X0,...,X6) = 6.61831545004

UDS_jd = 0.394980969961

decomposition:  [(0,), (5, 0), (1, 0), (3, (1, 0)), (6, (0, 3, 1)), (4, (3, 1, 0, 6)), (2, (1, 0, 4))]
