MCE

number of bins: 8
h(X8) = 0.160919031601
h(X8|X(7, 9, 6)) = 0.044984177051

number of bins: 15
h(X10) = 0.116955566515
h(X10|X(8, 9, 5, 4, 2, 0)) = 0.0679211304273

number of bins: 12
h(X6) = 0.148894275594
h(X6|X(7, 5)) = 0.035287885228
mce_uds_score: 0.288628518001

(63, 12)

h(X0,...,X11) = h(X0) + h(X1) + h(X2) + h(X3) + h(X4) + h(X5) + h(X6|X(7, 5)) + h(X7) + h(X8|X(7, 9, 6)) + h(X9) + h(X10|X(8, 9, 5, 4, 2, 0)) + h(X11) +  = 1.71258852573

