MCE

number of bins: 4
h(X7) = 0.152184039285
h(X7|X(2, 5)) = 0.0996688865852
mce_uds_score: 0.278001612076

(63, 12)

h(X0,...,X11) = h(X0|X8) + h(X1) + h(X2) + h(X3) + h(X4|X9) + h(X5) + h(X6) + h(X7|X(2, 5)) + h(X8) + h(X9) + h(X10|X6) + h(X11|X1) +  = 1.68719357479

