MCE

number of bins: 32
h(X0) = 0.157823646284
h(X0|X(15, 20, 22, 5, 9)) = 0.0

number of bins: 11
h(X2) = 1.45572192053
h(X2|X(3, 4, 14, 21, 19)) = 0.838492270704

number of bins: 6
h(X31) = 5.00293853218
h(X31|X(32, 30)) = 2.16742999409
mce_uds_score: 0.159298692422

(395, 33)

h(X0,...,X32) = h(X0|X(15, 20, 22, 5, 9)) + h(X1) + h(X2|X(3, 4, 14, 21, 19)) + h(X3) + h(X4) + h(X5) + h(X6) + h(X7) + h(X8|X6) + h(X9) + h(X10) + h(X11) + h(X12) + h(X13) + h(X14) + h(X15) + h(X16) + h(X17) + h(X18) + h(X19) + h(X20) + h(X21) + h(X22) + h(X23) + h(X24) + h(X25) + h(X26) + h(X27|X26) + h(X28) + h(X29) + h(X30) + h(X31|X(32, 30)) + h(X32) +  = 40.6030873857

