[(2, (0, 1)), (5, (3, 4)), (8, (6, 7)), (9,)]

0.1809897384
309.947613041 

0.3791769975
342.945894844

0.2219293422
405.003740992

0.3204725808
377.598183847

0.1523209429
326.655036653 

0.0540117313
484.219973907 

0.1143657269
423.718629233 

0.274504037
384.179623795 

0.4080027995
516.00761926 

0.1256014494
485.399479264 
