precision mce: [0.45625350140056026, 0.45096475871050173, 0.44939834267040146, 0.45106500933706817, 0.4436542950513539, 0.4352306317263748, 0.43371715133421784, 0.4290173964322571, 0.42651739643225717, 0.42480783760872776]

recall mce: [0.4803571428571428, 0.475, 0.475, 0.47678571428571426, 0.4696428571428571, 0.46249999999999997, 0.46249999999999997, 0.45714285714285713, 0.45535714285714285, 0.4535714285714285]


precision uds: [0.0631578947368421, 0.0631578947368421, 0.0631578947368421, 0.0631578947368421, 0.0631578947368421, 0.0631578947368421, 0.0631578947368421, 0.0631578947368421, 0.0631578947368421, 0.0631578947368421]

recall uds: [0.857142857142857, 0.857142857142857, 0.857142857142857, 0.857142857142857, 0.857142857142857, 0.857142857142857, 0.857142857142857, 0.857142857142857, 0.857142857142857, 0.857142857142857]


precision uds++: [0.30328605604921394, 0.2965291068580542, 0.2923123148781044, 0.294434666210982, 0.29365459102301206, 0.2896696286169971, 0.28670910230120755, 0.28617652084757345, 0.28283692185007975, 0.28152113237639553]

recall uds++: [0.43571428571428567, 0.425, 0.41964285714285715, 0.42142857142857143, 0.41964285714285715, 0.41250000000000003, 0.4089285714285715, 0.4089285714285715, 0.4089285714285715, 0.39285714285714285]