(569, 15)
joint discretization
h(X0|X(8, 13), number of bins: 4

joint discretization
h(X6|X(11, 8, 13), number of bins: 5

joint discretization
h(X1|X(9, 13, 8), number of bins: 5

joint discretization
h(X9|X(0, 13, 8), number of bins: 5

joint discretization
h(X3|X(8, 13, 4), number of bins: 5

joint discretization
h(X14|X(0, 13, 8), number of bins: 5

joint discretization
h(X12|X(8, 4, 13), number of bins: 5

threshold preprocessing = 0
threshold discretization = 0
number of all combinations = 210
size of the candidates set: 210

h(X0,...,X14) = 
h(X7) + h(X0|X8 X13) + h(X2) + h(X6|X8 X11 X13) + h(X5) + h(X1|X8 X9 X13) + h(X8) + h(X9|X0 X8 X13) + h(X4) + h(X3|X4 X8 X13) + h(X11) + h(X14|X0 X8 X13) + h(X10) + h(X12|X4 X8 X13) + h(X13)=221.53456584

joint discretization
h(X0|X(8, 13), number of bins: 4

joint discretization
h(X6|X(11, 8), number of bins: 4

joint discretization
h(X1|X(9, 13), number of bins: 4

joint discretization
h(X9|X(0, 13), number of bins: 4

joint discretization
h(X3|X(8, 13), number of bins: 4

joint discretization
h(X14|X(0, 13), number of bins: 4

joint discretization
h(X12|X(8, 4), number of bins: 4

threshold preprocessing = 0
threshold discretization = 0.1
number of all combinations = 210
size of the candidates set: 210

h(X0,...,X14) = h(X7) + h(X0|X8 X13) + h(X2) + h(X6|X8 X11) + h(X5) + h(X1|X9 X13) + h(X8) + h(X9|X0 X13) + h(X4) + h(X3|X8 X13) + h(X11) + h(X14|X0 X13) + h(X10) + h(X12|X4 X8) + h(X13) = 221.809232235

joint discretization
h(X0|X(8, 13), number of bins: 4

joint discretization
h(X6|X(11, 8), number of bins: 4

joint discretization
h(X1|X(9, 13), number of bins: 4

joint discretization
h(X9|X(0, 13), number of bins: 4

joint discretization
h(X3|X(8, 13), number of bins: 4

joint discretization
h(X14|X(0, 13), number of bins: 4

joint discretization
h(X12|X(8, 4), number of bins: 4

threshold preprocessing = 0
threshold discretization = 0.2
number of all combinations = 210
size of the candidates set: 210
h(X0,...,X14) = h(X7) + h(X0|X8 X13) + h(X2) + h(X6|X8 X11) + h(X5) + h(X1|X9 X13) + h(X8) + h(X9|X0 X13) + h(X4) + h(X3|X8 X13) + h(X11) + h(X14|X0 X13) + h(X10) + h(X12|X4 X8) + h(X13) = 221.809232235

