MCE
mce_uds_score: 0.252141392805

(10000, 11)

h(X0,...,X10) = h(X0|X1) + h(X1) + h(X2|X3) + h(X3) + h(X4) + h(X5) + h(X6) + h(X7|X5) + h(X8|X9) + h(X9) + h(X10) +  = 207.841945709

mce time dim 10: 147.32845497131348
MCE

number of bins: 4
h(X16) = 36.5675139657
h(X16|X(17, 18)) = 13.1860760006

number of bins: 4
h(X8) = 26.8883108695
h(X8|X(9, 5)) = 9.64904809242

number of bins: 3
h(X11) = 33.8930401697
h(X11|X(12, 13)) = 9.93566185416

number of bins: 6
h(X1) = 15.4943010806
h(X1|X(2, 3, 4)) = 6.88006432221
mce_uds_score: 0.392754876512

(10000, 21)

h(X0,...,X20) = h(X0) + h(X1|X(2, 3, 4)) + h(X2|X0) + h(X3) + h(X4) + h(X5) + h(X6) + h(X7) + h(X8|X(9, 5)) + h(X9) + h(X10) + h(X11|X(12, 13)) + h(X12) + h(X13|X14) + h(X14) + h(X15) + h(X16|X(17, 18)) + h(X17) + h(X18) + h(X19) + h(X20) +  = 562.413496661

mce time dim 20: 381.924635887146
MCE

number of bins: 3
h(X0) = 30.7995447287
h(X0|X(1, 2)) = 13.6043605611

number of bins: 6
h(X17) = 19.1071830151
h(X17|X(18, 19, 15)) = 7.04066247733

number of bins: 8
h(X3) = 18.1669400667
h(X3|X(0, 4, 2)) = 10.6375143714

number of bins: 4
h(X21) = 30.6446730609
h(X21|X(20, 23)) = 7.57596973527

number of bins: 4
h(X11) = 37.7138969884
h(X11|X(12, 14)) = 22.7893463728

number of bins: 5
h(X13) = 18.4541986608
h(X13|X(12, 14, 11)) = 4.28889248576
mce_uds_score: 0.178024836513

(10000, 31)

h(X0,...,X30) = h(X0|X(1, 2)) + h(X1) + h(X2) + h(X3|X(0, 4, 2)) + h(X4) + h(X5) + h(X6) + h(X7|X8) + h(X8) + h(X9) + h(X10) + h(X11|X(12, 14)) + h(X12) + h(X13|X(12, 14, 11)) + h(X14) + h(X15) + h(X16|X18) + h(X17|X(18, 19, 15)) + h(X18) + h(X19) + h(X20) + h(X21|X(20, 23)) + h(X22) + h(X23) + h(X24) + h(X25) + h(X26) + h(X27) + h(X28) + h(X29) + h(X30) +  = 1104.24591488

mce time dim 30: 748.8289129734039
MCE

number of bins: 5
h(X33) = 39.1887300568
h(X33|X(34, 31)) = 6.02868416017

number of bins: 4
h(X2) = 18.7722080671
h(X2|X(3, 4)) = 5.69091658568

number of bins: 8
h(X8) = 35.413244079
h(X8|X(6, 7, 9)) = 6.44094219297

number of bins: 4
h(X26) = 61.1572417639
h(X26|X(28, 29)) = 32.1802780851

number of bins: 3
h(X12) = 32.1617782641
h(X12|X(11, 13)) = 14.3849350634

number of bins: 8
h(X18) = 58.9169552657
h(X18|X(17, 19, 16)) = 28.2575632028

number of bins: 4
h(X13) = 36.6498267382
h(X13|X(14, 11)) = 19.9023032537
mce_uds_score: 0.210274037626

(10000, 41)

h(X0,...,X40) = h(X0) + h(X1) + h(X2|X(3, 4)) + h(X3) + h(X4) + h(X5) + h(X6) + h(X7) + h(X8|X(6, 7, 9)) + h(X9) + h(X10) + h(X11) + h(X12|X(11, 13)) + h(X13|X(14, 11)) + h(X14) + h(X15) + h(X16) + h(X17) + h(X18|X(17, 19, 16)) + h(X19) + h(X20) + h(X21|X23) + h(X22) + h(X23) + h(X24) + h(X25) + h(X26|X(28, 29)) + h(X27) + h(X28) + h(X29) + h(X30) + h(X31) + h(X32) + h(X33|X(34, 31)) + h(X34) + h(X35) + h(X36) + h(X37) + h(X38) + h(X39) + h(X40) +  = 1265.3430221

mce time dim 40: 1165.2349750995636
MCE

number of bins: 6
h(X33) = 47.4411341864
h(X33|X(32, 31, 30)) = 29.5475981607

number of bins: 4
h(X3) = 31.326932928
h(X3|X(4, 2)) = 19.0072964352

number of bins: 6
h(X38) = 49.1749131196
h(X38|X(37, 36, 39)) = 1.69305848479

number of bins: 6
h(X8) = 25.7846006708
h(X8|X(7, 6, 9)) = 9.90030587836

number of bins: 3
h(X13) = 30.6743604627
h(X13|X(11, 12)) = 16.5365348608

number of bins: 6
h(X15) = 27.700700161
h(X15|X(16, 19)) = 7.37000735765

number of bins: 5
h(X19) = 104.812643676
h(X19|X(18, 17)) = 25.4025086474

number of bins: 4
h(X23) = 33.8935605427
h(X23|X(22, 24)) = 17.9989632714

number of bins: 5
h(X28) = 79.1105863271
h(X28|X(29, 26)) = 9.45641498643
mce_uds_score: 0.242044567985

(10000, 51)

h(X0,...,X50) = h(X0) + h(X1) + h(X2) + h(X3|X(4, 2)) + h(X4) + h(X5|X7) + h(X6) + h(X7) + h(X8|X(7, 6, 9)) + h(X9) + h(X10) + h(X11) + h(X12) + h(X13|X(11, 12)) + h(X14) + h(X15|X(16, 19)) + h(X16) + h(X17) + h(X18) + h(X19|X(18, 17)) + h(X20|X21) + h(X21) + h(X22) + h(X23|X(22, 24)) + h(X24) + h(X25) + h(X26) + h(X27) + h(X28|X(29, 26)) + h(X29) + h(X30) + h(X31) + h(X32) + h(X33|X(32, 31, 30)) + h(X34) + h(X35) + h(X36) + h(X37|X35) + h(X38|X(37, 36, 39)) + h(X39) + h(X40) + h(X41) + h(X42) + h(X43) + h(X44) + h(X45) + h(X46) + h(X47) + h(X48) + h(X49) + h(X50) +  = 1714.13786644

mce time dim 50: 1918.9826290607452
