@relation DB

@attribute dim0 {1,2}
@attribute dim1 {3,4}
@attribute dim2 {5,6}
@attribute dim3 {7,8}
@attribute dim4 {9,10,11,12,13}
@attribute dim5 {14,15}
@attribute dim6 {16,17}
@attribute class {"0","1"}

@data
1,3,6,7,13,15,16,"0"
1,3,6,7,13,15,16,"0"
1,3,6,7,13,15,16,"0"
1,4,5,7,13,14,16,"1"
2,3,5,7,9,14,17,"0"
1,3,6,7,13,15,16,"0"
1,4,6,7,12,14,16,"0"
1,3,6,7,13,15,16,"0"
1,4,5,8,9,14,16,"0"
1,3,6,7,13,15,16,"0"
1,3,6,7,13,15,16,"0"
1,3,6,7,13,15,16,"0"
2,3,6,7,9,14,17,"0"
2,4,6,7,9,14,17,"0"
1,3,6,8,13,15,16,"0"
1,3,6,8,13,15,16,"0"
1,4,5,8,9,14,16,"0"
1,3,6,7,13,15,16,"0"
1,3,5,8,9,15,17,"0"
1,3,6,7,13,15,16,"0"
2,3,6,7,9,14,17,"0"
2,3,5,8,9,15,17,"0"
1,3,6,7,13,15,16,"0"
1,3,6,7,13,15,16,"0"
2,3,5,8,13,15,17,"0"
1,3,6,7,13,15,16,"0"
1,3,6,8,13,15,16,"0"
1,4,5,8,9,14,16,"0"
1,3,6,7,13,15,16,"0"
1,3,6,7,13,15,16,"0"
1,3,6,8,13,15,16,"0"
2,3,6,7,12,15,16,"0"
1,4,5,7,9,14,16,"1"
1,3,6,7,13,15,16,"0"
1,3,6,7,13,15,16,"0"
1,3,6,7,13,15,16,"0"
1,3,6,7,13,15,16,"0"
1,3,6,8,13,15,16,"0"
1,3,6,7,13,15,16,"0"
1,4,6,8,13,15,16,"0"
1,3,6,7,13,15,16,"0"
1,3,6,7,13,15,16,"0"
1,3,6,7,13,15,16,"0"
1,3,6,7,13,15,16,"0"
1,4,6,7,12,14,16,"0"
1,3,6,7,13,15,16,"0"
2,4,6,8,11,15,16,"0"
1,3,6,7,13,15,16,"0"
1,3,6,7,13,15,16,"0"
1,3,6,7,13,15,16,"0"
1,3,6,7,13,15,16,"0"
1,3,6,7,13,15,16,"0"
1,3,6,7,13,15,16,"0"
1,3,6,7,13,15,16,"0"
1,4,5,8,9,14,16,"0"
1,3,6,8,13,15,16,"0"
2,4,5,8,9,15,17,"0"
2,4,6,7,9,14,17,"0"
1,4,6,7,12,14,16,"0"
1,3,6,7,13,15,16,"0"
2,4,6,7,12,15,16,"0"
1,4,6,7,12,14,16,"0"
1,3,6,7,13,15,16,"0"
2,4,6,7,9,14,17,"0"
2,4,6,7,9,14,17,"0"
1,4,5,8,9,14,16,"0"
1,3,6,7,12,15,16,"0"
2,4,6,7,9,14,16,"0"
2,3,5,8,9,15,17,"0"
1,3,6,7,9,14,17,"0"
1,4,5,8,9,14,16,"1"
1,3,6,7,13,15,16,"0"
1,4,5,8,9,14,17,"1"
1,3,6,7,13,15,16,"0"
2,3,6,7,9,14,17,"0"
1,4,6,7,13,15,16,"0"
1,3,6,7,13,15,16,"0"
1,3,6,7,13,15,16,"0"
1,3,6,7,13,15,16,"0"
1,3,6,7,13,15,16,"0"
1,3,6,7,13,15,16,"0"
1,3,6,7,13,15,16,"0"
2,4,6,7,9,14,17,"0"
1,3,6,7,13,15,16,"0"
1,3,5,7,13,15,17,"0"
2,4,6,7,11,15,16,"0"
2,3,5,7,9,14,17,"0"
1,3,6,7,13,15,16,"0"
1,3,6,7,13,15,16,"0"
1,4,5,7,9,14,17,"0"
1,4,5,8,9,14,16,"0"
1,3,6,7,13,15,16,"0"
2,3,6,7,9,14,17,"0"
1,4,5,7,9,14,17,"1"
1,4,5,8,9,14,16,"0"
2,4,6,7,9,14,17,"0"
1,4,5,8,9,14,16,"0"
2,4,5,8,9,15,17,"0"
1,3,6,7,13,15,16,"0"
1,3,6,7,13,15,16,"0"
1,4,6,7,13,15,16,"0"
1,3,6,7,13,15,16,"0"
2,4,5,7,9,14,16,"0"
1,4,5,8,9,14,16,"0"
1,4,5,8,9,14,16,"0"
2,3,5,8,10,15,16,"0"
1,3,6,8,13,15,16,"0"
1,4,5,8,9,14,16,"0"
2,4,6,7,11,15,16,"0"
1,3,5,8,9,15,17,"0"
1,3,6,7,13,15,16,"0"
1,4,5,8,9,14,16,"0"
2,4,6,7,9,14,16,"0"
1,4,5,8,12,14,16,"0"
1,3,6,7,13,15,16,"0"
2,3,6,7,12,15,16,"0"
2,4,5,8,9,15,17,"0"
2,4,6,8,13,15,16,"0"
1,3,5,7,9,14,17,"0"
1,3,6,7,13,15,16,"0"
1,3,6,7,13,15,16,"0"
1,3,6,7,13,15,16,"0"
2,4,6,7,9,14,17,"0"
2,4,6,7,9,14,17,"0"
1,3,5,7,9,14,17,"0"
1,3,6,7,13,15,16,"0"
1,3,5,7,13,15,16,"0"
1,4,5,8,9,14,16,"0"
2,4,6,7,9,14,16,"0"
1,3,6,7,13,15,16,"0"
1,3,6,7,13,15,16,"0"
1,3,6,7,13,15,16,"0"
1,4,5,8,12,14,16,"0"
1,3,6,7,13,15,16,"0"
1,3,5,7,9,14,17,"0"
1,3,6,7,13,15,16,"0"
1,3,6,7,13,15,16,"0"
1,3,6,7,13,15,16,"0"
2,4,6,7,9,14,17,"0"
1,3,6,7,13,15,16,"0"
1,3,6,7,13,15,16,"0"
2,4,6,7,9,15,16,"0"
2,4,6,7,9,14,16,"0"
1,3,5,8,13,15,17,"0"
1,3,6,7,13,15,16,"0"
1,3,6,7,13,15,16,"0"
2,4,6,8,12,15,16,"0"
2,4,5,7,9,15,17,"0"
2,4,6,8,9,14,16,"0"
1,3,6,7,13,15,16,"0"
1,4,6,8,13,15,16,"0"
2,4,6,7,9,14,17,"0"
2,4,5,7,9,14,17,"0"
1,3,6,7,13,15,16,"0"
1,3,6,7,13,15,16,"0"
1,3,6,7,13,15,16,"0"
1,4,5,8,9,14,16,"0"
1,3,5,8,13,15,17,"0"
1,4,6,7,9,14,16,"0"
1,3,6,7,13,15,16,"0"
1,3,5,7,9,14,17,"0"
2,4,6,7,9,14,17,"0"
1,4,5,8,9,14,16,"0"
2,3,5,8,11,15,16,"0"
1,3,5,7,9,14,17,"0"
2,4,6,7,9,14,17,"0"
1,3,6,7,13,15,16,"0"
1,3,6,7,13,15,16,"0"
1,3,6,7,13,15,16,"0"
1,4,5,8,9,14,16,"0"
1,3,6,7,13,15,16,"0"
1,3,6,7,13,14,16,"0"
2,4,6,7,9,14,17,"0"
1,4,5,8,13,15,16,"0"
2,4,6,7,9,15,16,"0"
1,4,5,8,12,14,16,"0"
2,4,6,7,9,14,16,"0"
1,3,6,7,13,15,16,"0"
1,3,5,7,13,15,17,"0"
1,4,5,7,9,14,17,"1"
1,3,6,7,13,15,16,"0"
1,3,6,7,13,15,16,"0"
2,4,6,8,11,15,16,"0"
1,4,5,7,9,14,17,"0"
1,3,6,7,13,15,16,"0"
1,4,5,8,12,14,16,"0"
1,3,6,7,13,15,16,"0"
1,3,6,7,13,15,16,"0"
1,3,6,7,13,15,16,"0"
1,3,5,7,9,14,17,"0"
2,4,6,7,9,15,16,"0"
1,3,6,7,13,15,16,"0"
1,4,5,7,9,14,17,"1"
1,4,5,8,9,14,16,"0"
1,4,5,8,9,14,17,"1"
1,3,6,7,13,15,16,"0"
1,3,6,7,13,15,16,"0"
1,3,6,7,13,15,16,"0"
1,3,6,8,13,15,16,"0"
1,3,6,7,13,15,16,"0"
1,3,6,7,13,15,16,"0"
1,3,6,7,13,15,16,"0"
2,4,6,7,11,15,16,"0"
1,3,6,7,13,15,16,"0"
1,3,6,7,13,15,16,"0"
1,3,6,7,13,15,16,"0"
1,4,5,8,9,14,16,"0"
1,3,6,7,13,15,16,"0"
1,3,6,7,13,15,16,"0"
1,3,6,7,13,15,16,"0"
1,3,6,8,13,15,16,"0"
1,4,6,7,13,15,16,"0"
1,3,6,8,13,15,16,"0"
1,4,5,8,9,14,16,"1"